cardInformationFunctions.c:48:6:CopyStreamToCardInformation	24	static
cardInformationFunctions.c:70:6:CopyCardInformationToStream	24	static
cardInformationFunctions.c:92:6:CopyStreamToCardConfiguration	24	static
cardInformationFunctions.c:109:6:CopyCardConfigurationToStream	24	static
cardInformationFunctions.c:126:6:CopyStreamToCardStatus	24	static
cardInformationFunctions.c:140:6:CopyCardStatusToStream	24	static
cardInformationFunctions.c:154:6:CopyStreamToCardHolderInformation	24	static
cardInformationFunctions.c:173:6:CopyCardHolderInformationsStructToStream	24	static
cardInformationFunctions.c:192:6:CopyStreamToTicketInformation	24	static
cardInformationFunctions.c:212:6:CopyTicketInformationsToStream	24	static
cardInformationFunctions.c:232:6:CopyStreamToTicketValue	24	static
cardInformationFunctions.c:242:6:CopyTicketValueToStream	24	static
cardInformationFunctions.c:252:6:CopyStreamToTicketLog	24	static
cardInformationFunctions.c:269:6:CopyTicketLogToStream	24	static
cardInformationFunctions.c:286:6:CopyStreamToPurseInformation	24	static
cardInformationFunctions.c:303:6:CopyPurseInformationsToStream	24	static
cardInformationFunctions.c:320:6:CopyStreamToPurseValue	24	static
cardInformationFunctions.c:330:6:CopyPurseValueToStream	24	static
cardInformationFunctions.c:340:6:CopyStreamToPurseLog	24	static
cardInformationFunctions.c:357:6:CopyPurseLogToStream	24	static
cardInformationFunctions.c:374:6:CopyStreamToTicketTransactionCount	24	static
cardInformationFunctions.c:385:6:CopyTicketTransactionCountToStream	24	static
cardInformationFunctions.c:396:6:CopyStreamToPurseTransactionCount	24	static
cardInformationFunctions.c:407:6:CopyPurseTransactionCountToStream	24	static
cardInformationFunctions.c:418:6:CopyStreamToCardTransactionCount	24	static
cardInformationFunctions.c:429:6:CopyCardTransactionCountToStream	24	static
