CardHandler.c:54:6:CardHandlerInitializer	16	static
CardHandler.c:68:9:CardHandlerContinueWith	32	static
CardHandler.c:97:6:CardHandlerSetToIgnore	24	static
CardHandler.c:122:6:CardHandlerSetToNotIgnore	24	static
