CnsCardInterfaceInternalWrapper_readX.c:67:17:intDnfccReadX	72	static
CnsCardInterfaceInternalWrapper_readX.c:125:9:CnsCardInterfaceInternalReadData	48	static
CnsCardInterfaceInternalWrapper_readX.c:150:10:CnsCardInterfaceInternalGetValue	56	static
CnsCardInterfaceInternalWrapper_readX.c:180:9:CnsCardInterfaceInternalReadRecords	64	static
CnsCardInterfaceInternalWrapper_readX.c:220:17:intDnfccWritedX	72	static
CnsCardInterfaceInternalWrapper_readX.c:270:10:CnsCardInterfaceInternal_Sw_Debit	24	static
CnsCardInterfaceInternalWrapper_readX.c:289:10:CnsCardInterfaceInternal_Sw_Credit	24	static
CnsCardInterfaceInternalWrapper_readX.c:310:9:CnsCardInterfaceInternalWriteData	296	static
CnsCardInterfaceInternalWrapper_readX.c:338:9:CnsCardInterfaceInternalWriteRecord	296	static
CnsCardInterfaceInternalWrapper_readX.c:366:10:CnsCardInterfaceInternal_Sw_CommitTransaction	24	static
CnsCardInterfaceInternalWrapper_readX.c:387:10:CnsCardInterfaceInternal_Sw_SelectApplication	32	static
CnsCardInterfaceInternalWrapper_readX.c:406:10:CnsCardInterfaceInternal_Sw_FormatPICC	24	static
CnsCardInterfaceInternalWrapper_readX.c:426:12:CnsCardInterfaceSam_Sw_IsoAuthenticate	264	static
CnsCardInterfaceInternalWrapper_readX.c:649:10:CnsCardInterfaceInternal_Sw_CreateNormalFile	56	static
CnsCardInterfaceInternalWrapper_readX.c:696:10:CnsCardInterfaceInternal_Sw_CreateValueFile	56	static
CnsCardInterfaceInternalWrapper_readX.c:752:10:CnsCardInterfaceInternal_Sw_CreateRecordsFile	56	static
CnsCardInterfaceInternalWrapper_readX.c:794:10:CnsCardInterfaceInternal_Sw_CreateApplication	32	static
