CnsCardInterface.c:49:9:CnsCardInterfaceInitialize	24	static
CnsCardInterface.c:74:9:CnsCardInterfaceStartCard	32	static
CnsCardInterface.c:102:9:CnsCardInterfaceGetUserInformation	176	static
CnsCardInterface.c:128:9:CnsCardInterfaceCardIsOfLogintype	88	static
CnsCardInterface.c:145:9:CnsCardInterfaceCardIsEnabled	160	static
CnsCardInterface.c:219:9:CnsCardInterfaceTicketType	64	static
CnsCardInterface.c:248:9:CnsCardInterfaceSetCardFromPtoA	56	static
CnsCardInterface.c:281:9:CnsCardInterfaceSetCardFromAtoP	56	static
CnsCardInterface.c:315:9:CnsCardInterfaceCardStatus	64	static
CnsCardInterface.c:345:9:CnsCardInterfaceCardIsCardNotExpired	104	static
CnsCardInterface.c:381:9:CnsCardInterfaceTicketStatus	64	static
CnsCardInterface.c:410:9:CnsCardInterfacePurseStatus	64	static
CnsCardInterface.c:439:9:CnsCardInterfaceGetPurseBalance	32	static
CnsCardInterface.c:464:9:CnsCardInterfaceDebitPurseBalance	32	static
CnsCardInterface.c:490:9:CnsCardInterfaceGetTicketBalance	32	static
CnsCardInterface.c:515:9:CnsCardInterfaceDebitTicketBalance	32	static
CnsCardInterface.c:544:9:CnsCardInterfaceCreditTicketBalance	32	static
CnsCardInterface.c:572:9:CnsCardInterfaceWriteTicketLog	64	static
CnsCardInterface.c:601:9:CnsCardInterfaceWritePurseLog	64	static
CnsCardInterface.c:628:9:CnsCardInterfaceTicketTransactionCount	32	static
CnsCardInterface.c:656:9:CnsCardInterfacePurseExpire	72	static
CnsCardInterface.c:688:9:CnsCardInterfaceTicketExpire	80	static
CnsCardInterface.c:723:9:CnsCardInterfaceCheckLowTicketBalance	32	static
CnsCardInterface.c:753:9:CnsCardInterfaceCheckLowPurseBalance	32	static
CnsCardInterface.c:783:9:CnsCardInterfacePerformPurseLogging	64	static
CnsCardInterface.c:816:9:CnsCardInterfaceTicketTransaction	16	static
CnsCardInterface.c:828:9:CnsCardInterfacePurseTransaction	16	static
CnsCardInterface.c:839:9:CnsCardInterfaceCardTransaction	16	static
CnsCardInterface.c:851:9:CnsCardInterfaceReadCardInfo	16	static
CnsCardInterface.c:863:9:CnsCardInterfaceReadTicketInfo	24	static
CnsCardInterface.c:880:9:CnsCardInterfaceReadPurseInfo	24	static
CnsCardInterface.c:897:9:CnsCardInterfaceVerifyCardActive	56	static
