logFunctions.c:48:6:logRc663Lowlevel	16	static
logFunctions.c:60:6:logRc663TimingString	16	static
logFunctions.c:75:6:logQrcodeString	16	static
logFunctions.c:88:6:logPrinterString	16	static
logFunctions.c:101:6:logOtgString	16	static
logFunctions.c:114:6:apiDnfccLogFlowcontrollerString	16	static
logFunctions.c:127:6:logUploadString	16	static
logFunctions.c:140:6:logCollisionString	16	static
logFunctions.c:156:6:logGsmString	16	static
logFunctions.c:169:6:logWifiString	16	static
logFunctions.c:182:6:logCanString	16	static
logFunctions.c:194:6:logSdioString	16	static
logFunctions.c:202:6:logTouchString	16	static
logFunctions.c:214:6:logSamString	16	static
