queueSendRoutines.c:44:6:queueSendToSound	16	static
queueSendRoutines.c:55:6:queueSendToCanbus	16	static
queueSendRoutines.c:66:6:queueSendToDataDistributor	16	static
queueSendRoutines.c:77:6:queueSendToDisplay	16	static
queueSendRoutines.c:88:6:queueSendToClock	16	static
queueSendRoutines.c:99:6:queueSendToQrcode	16	static
queueSendRoutines.c:110:6:queueSendToFlashProgrammer	16	static
queueSendRoutines.c:121:6:queueSendToSam	16	static
queueSendRoutines.c:132:6:queueSendToGps	16	static
queueSendRoutines.c:143:6:queueSendToGsm	16	static
queueSendRoutines.c:154:6:queueSendToMenu	16	static
queueSendRoutines.c:165:6:queueSendToSdio	16	static
queueSendRoutines.c:176:6:queueSendToPrinter	16	static
queueSendRoutines.c:187:6:queueSendToSmartcard	16	static
queueSendRoutines.c:198:6:queueSendToTouch	16	static
queueSendRoutines.c:209:6:queueSendToWifi	16	static
