sound.c:60:12:nfccSoundInit	24	static
sound.c:77:6:nfccSound	168	static
sound.c:133:13:MX_DAC_Init	16	static
sound.c:158:13:MX_TIM6_Init	16	static
sound.c:182:6:intDnfccSoundSetupHardware	8	static
sound.c:195:13:MX_DMA_Init	16	static
sound.c:211:6:HAL_DAC_MspInit	40	static
sound.c:257:6:HAL_TIM_Base_MspInit	24	static
sound.c:279:6:DMA1_Stream5_IRQHandler	8	static
sound.c:286:6:TIM6_DAC_IRQHandler	8	static
