SoundSelector.c:66:6:apiDnfccPlaySound	24	static
SoundSelector.c:77:6:apiDnfccSoundStartSystem	8	static
SoundSelector.c:84:6:apiDnfccSoundKeyclick	8	static
SoundSelector.c:94:6:apiDnfccSoundValidIn	16	static
SoundSelector.c:117:6:apiDnfccSoundValidInFemale	16	static
SoundSelector.c:140:6:apiDnfccSoundInvalidIn	16	static
SoundSelector.c:165:6:apiDnfccSoundValidInLow	16	static
SoundSelector.c:189:6:apiDnfccSoundTryAgain	16	static
