bsp_driver_sd.c:81:9:BSP_SD_Init	16	static
bsp_driver_sd.c:113:9:BSP_SD_ITConfig	4	static
bsp_driver_sd.c:122:6:BSP_SD_DetectIT	4	static
bsp_driver_sd.c:129:13:BSP_SD_DetectCallback	4	static
bsp_driver_sd.c:144:9:BSP_SD_ReadBlocks	40	static
bsp_driver_sd.c:166:9:BSP_SD_WriteBlocks	40	static
bsp_driver_sd.c:188:9:BSP_SD_ReadBlocks_DMA	40	static
bsp_driver_sd.c:222:9:BSP_SD_WriteBlocks_DMA	40	static
bsp_driver_sd.c:254:9:BSP_SD_Erase	48	static
bsp_driver_sd.c:271:6:BSP_SD_IRQHandler	8	static
bsp_driver_sd.c:279:6:BSP_SD_DMA_Tx_IRQHandler	8	static
bsp_driver_sd.c:287:6:BSP_SD_DMA_Rx_IRQHandler	8	static
bsp_driver_sd.c:300:29:BSP_SD_GetStatus	8	static
bsp_driver_sd.c:309:6:BSP_SD_GetCardInfo	16	static
bsp_driver_sd.c:320:9:BSP_SD_IsDetected	16	static
