bignum.c:62:13:mbedtls_mpi_zeroize	24	static
bignum.c:82:6:mbedtls_mpi_init	16	static
bignum.c:95:6:mbedtls_mpi_free	16	static
bignum.c:114:5:mbedtls_mpi_grow	24	static
bignum.c:144:5:mbedtls_mpi_shrink	24	static
bignum.c:180:5:mbedtls_mpi_copy	24	static
bignum.c:214:6:mbedtls_mpi_swap	32	static
bignum.c:228:5:mbedtls_mpi_safe_cond_assign	32	static
bignum.c:256:5:mbedtls_mpi_safe_cond_swap	40	static
bignum.c:290:5:mbedtls_mpi_lset	24	static
bignum.c:308:5:mbedtls_mpi_get_bit	16	static
bignum.c:319:5:mbedtls_mpi_set_bit	40	static
bignum.c:347:8:mbedtls_mpi_lsb	32	static
bignum.c:362:15:mbedtls_clz	24	static
bignum.c:380:8:mbedtls_mpi_bitlen	24	static
bignum.c:399:8:mbedtls_mpi_size	16	static
bignum.c:407:12:mpi_get_digit	24	static
bignum.c:424:5:mbedtls_mpi_read_string	64	static
bignum.c:496:12:mpi_write_hlp	32	static
bignum.c:523:5:mbedtls_mpi_write_string	64	static
bignum.c:600:5:mbedtls_mpi_read_file	2520	static
bignum.c:633:5:mbedtls_mpi_write_file	2544	static
bignum.c:672:5:mbedtls_mpi_read_binary	40	static
bignum.c:695:5:mbedtls_mpi_write_binary	40	static
bignum.c:715:5:mbedtls_mpi_shift_l	40	static
bignum.c:765:5:mbedtls_mpi_shift_r	40	static
bignum.c:808:5:mbedtls_mpi_cmp_abs	24	static
bignum.c:838:5:mbedtls_mpi_cmp_mpi	24	static
bignum.c:871:5:mbedtls_mpi_cmp_int	32	static
bignum.c:887:5:mbedtls_mpi_add_abs	56	static
bignum.c:943:13:mpi_sub_hlp	40	static
bignum.c:964:5:mbedtls_mpi_sub_abs	48	static
bignum.c:1007:5:mbedtls_mpi_add_mpi	32	static
bignum.c:1038:5:mbedtls_mpi_sub_mpi	32	static
bignum.c:1069:5:mbedtls_mpi_add_int	40	static
bignum.c:1085:5:mbedtls_mpi_sub_int	40	static
bignum.c:1109:6:mpi_mul_hlp	288	static
bignum.c:1173:5:mbedtls_mpi_mul_mpi	72	static
bignum.c:1210:5:mbedtls_mpi_mul_int	40	static
bignum.c:1227:25:mbedtls_int_div_int	48	static
bignum.c:1322:5:mbedtls_mpi_div_mpi	112	static
bignum.c:1437:5:mbedtls_mpi_div_int	40	static
bignum.c:1453:5:mbedtls_mpi_mod_mpi	32	static
bignum.c:1476:5:mbedtls_mpi_mod_int	40	static
bignum.c:1533:13:mpi_montg_init	32	static
bignum.c:1550:12:mpi_montmul	48	static
bignum.c:1593:12:mpi_montred	48	static
bignum.c:1607:5:mbedtls_mpi_exp_mod	1664	static
bignum.c:1815:5:mbedtls_mpi_gcd	72	static
bignum.c:1871:5:mbedtls_mpi_fill_random	1064	static
bignum.c:1891:5:mbedtls_mpi_inv_mod	136	static
bignum.c:2019:12:mpi_check_small_factors	32	static
bignum.c:2046:12:mpi_miller_rabin	128	static
bignum.c:2150:5:mbedtls_mpi_is_prime	40	static
bignum.c:2182:5:mbedtls_mpi_gen_prime	56	static
bignum.c:2287:5:mbedtls_mpi_self_test	128	static
