ccm.c:53:13:mbedtls_zeroize	24	static
ccm.c:63:6:mbedtls_ccm_init	16	static
ccm.c:68:5:mbedtls_ccm_setkey	32	static
ccm.c:100:6:mbedtls_ccm_free	16	static
ccm.c:137:12:ccm_auth_crypt	120	static
ccm.c:307:5:mbedtls_ccm_encrypt_and_tag	56	static
ccm.c:320:5:mbedtls_ccm_auth_decrypt	88	static
ccm.c:400:5:mbedtls_ccm_self_test	168	static
