cmac.c:69:13:mbedtls_zeroize	24	static
cmac.c:85:12:cmac_multiply_by_u	40	static
cmac.c:138:12:cmac_generate_subkeys	64	static
cmac.c:168:13:cmac_xor_block	32	static
cmac.c:184:13:cmac_pad	32	static
cmac.c:202:5:mbedtls_cipher_cmac_starts	40	static
cmac.c:242:5:mbedtls_cipher_cmac_update	64	static
cmac.c:310:5:mbedtls_cipher_cmac_finish	96	static
cmac.c:371:5:mbedtls_cipher_cmac_reset	24	static
cmac.c:390:5:mbedtls_cipher_cmac	96	static
cmac.c:426:5:mbedtls_aes_cmac_prf_128	80	static
cmac.c:759:12:cmac_test_subkeys	136	static
cmac.c:838:12:cmac_test_wth_cipher	64	static
cmac.c:890:12:test_aes128_cmac_prf	48	static
cmac.c:918:5:mbedtls_cmac_self_test	48	static
