stm32f4xx_hal_smartcard.c:240:19:HAL_SMARTCARD_Init	16	static
stm32f4xx_hal_smartcard.c:306:19:HAL_SMARTCARD_DeInit	16	static
stm32f4xx_hal_smartcard.c:341:14:HAL_SMARTCARD_MspInit	16	static
stm32f4xx_hal_smartcard.c:356:14:HAL_SMARTCARD_MspDeInit	16	static
stm32f4xx_hal_smartcard.c:428:19:HAL_SMARTCARD_Transmit	40	static
stm32f4xx_hal_smartcard.c:491:19:HAL_SMARTCARD_Receive	40	static
stm32f4xx_hal_smartcard.c:550:19:HAL_SMARTCARD_Transmit_IT	24	static
stm32f4xx_hal_smartcard.c:598:19:HAL_SMARTCARD_Receive_IT	24	static
stm32f4xx_hal_smartcard.c:643:19:HAL_SMARTCARD_Transmit_DMA	32	static
stm32f4xx_hal_smartcard.c:705:19:HAL_SMARTCARD_Receive_DMA	32	static
stm32f4xx_hal_smartcard.c:766:6:HAL_SMARTCARD_IRQHandler	40	static
stm32f4xx_hal_smartcard.c:891:14:HAL_SMARTCARD_TxCpltCallback	16	static
stm32f4xx_hal_smartcard.c:906:13:HAL_SMARTCARD_RxCpltCallback	16	static
stm32f4xx_hal_smartcard.c:921:14:HAL_SMARTCARD_ErrorCallback	16	static
stm32f4xx_hal_smartcard.c:955:28:HAL_SMARTCARD_GetState	24	static
stm32f4xx_hal_smartcard.c:970:10:HAL_SMARTCARD_GetError	16	static
stm32f4xx_hal_smartcard.c:985:13:SMARTCARD_DMATransmitCplt	24	static
stm32f4xx_hal_smartcard.c:1005:13:SMARTCARD_DMAReceiveCplt	24	static
stm32f4xx_hal_smartcard.c:1031:13:SMARTCARD_DMAError	24	static
stm32f4xx_hal_smartcard.c:1065:26:SMARTCARD_WaitOnFlagUntilTimeout	24	static
stm32f4xx_hal_smartcard.c:1097:13:SMARTCARD_EndTxTransfer	16	static
stm32f4xx_hal_smartcard.c:1112:13:SMARTCARD_EndRxTransfer	16	static
stm32f4xx_hal_smartcard.c:1128:26:SMARTCARD_Transmit_IT	24	static
stm32f4xx_hal_smartcard.c:1162:26:SMARTCARD_EndTransmit_IT	16	static
stm32f4xx_hal_smartcard.c:1184:26:SMARTCARD_Receive_IT	24	static
stm32f4xx_hal_smartcard.c:1226:13:SMARTCARD_DMAAbortOnError	24	static
stm32f4xx_hal_smartcard.c:1241:13:SMARTCARD_SetConfig	40	static
