stm32f4xx_hal_pcd.c:139:19:HAL_PCD_Init	80	static
stm32f4xx_hal_pcd.c:224:19:HAL_PCD_DeInit	16	static
stm32f4xx_hal_pcd.c:250:13:HAL_PCD_MspInit	16	static
stm32f4xx_hal_pcd.c:264:13:HAL_PCD_MspDeInit	16	static
stm32f4xx_hal_pcd.c:297:19:HAL_PCD_Start	16	static
stm32f4xx_hal_pcd.c:311:19:HAL_PCD_Stop	16	static
stm32f4xx_hal_pcd.c:326:6:HAL_PCD_IRQHandler	56	static
stm32f4xx_hal_pcd.c:724:14:HAL_PCD_DataOutStageCallback	16	static
stm32f4xx_hal_pcd.c:740:14:HAL_PCD_DataInStageCallback	16	static
stm32f4xx_hal_pcd.c:754:14:HAL_PCD_SetupStageCallback	16	static
stm32f4xx_hal_pcd.c:768:14:HAL_PCD_SOFCallback	16	static
stm32f4xx_hal_pcd.c:782:14:HAL_PCD_ResetCallback	16	static
stm32f4xx_hal_pcd.c:796:14:HAL_PCD_SuspendCallback	16	static
stm32f4xx_hal_pcd.c:810:14:HAL_PCD_ResumeCallback	16	static
stm32f4xx_hal_pcd.c:825:14:HAL_PCD_ISOOUTIncompleteCallback	16	static
stm32f4xx_hal_pcd.c:841:14:HAL_PCD_ISOINIncompleteCallback	16	static
stm32f4xx_hal_pcd.c:856:14:HAL_PCD_ConnectCallback	16	static
stm32f4xx_hal_pcd.c:870:14:HAL_PCD_DisconnectCallback	16	static
stm32f4xx_hal_pcd.c:903:19:HAL_PCD_DevConnect	16	static
stm32f4xx_hal_pcd.c:916:19:HAL_PCD_DevDisconnect	16	static
stm32f4xx_hal_pcd.c:930:19:HAL_PCD_SetAddress	16	static
stm32f4xx_hal_pcd.c:945:19:HAL_PCD_EP_Open	24	static
stm32f4xx_hal_pcd.c:987:19:HAL_PCD_EP_Close	24	static
stm32f4xx_hal_pcd.c:1018:19:HAL_PCD_EP_Receive	32	static
stm32f4xx_hal_pcd.c:1057:10:HAL_PCD_EP_GetRxCount	16	static
stm32f4xx_hal_pcd.c:1069:19:HAL_PCD_EP_Transmit	32	static
stm32f4xx_hal_pcd.c:1109:19:HAL_PCD_EP_SetStall	24	static
stm32f4xx_hal_pcd.c:1144:19:HAL_PCD_EP_ClrStall	24	static
stm32f4xx_hal_pcd.c:1174:19:HAL_PCD_EP_Flush	16	static
stm32f4xx_hal_pcd.c:1197:19:HAL_PCD_ActivateRemoteWakeup	24	static
stm32f4xx_hal_pcd.c:1214:19:HAL_PCD_DeActivateRemoteWakeup	24	static
stm32f4xx_hal_pcd.c:1246:18:HAL_PCD_GetState	16	static
stm32f4xx_hal_pcd.c:1269:26:PCD_WriteEmptyTxFifo	48	static
