\relax 
\providecommand\hyper@newdestlabel[2]{}
\gdef \LT@lxiv {\LT@entry 
    {3}{34.30963pt}\LT@entry 
    {3}{12.4pt}}
\@writefile{toc}{\contentsline {section}{\numberline {4.33}S\discretionary {\unhbox \voidb@x \hbox {\relax \fontsize  {7}{8}\selectfont  $\leftarrow \joinrel  \rhook $}}{}{}T\discretionary {\unhbox \voidb@x \hbox {\relax \fontsize  {7}{8}\selectfont  $\leftarrow \joinrel  \rhook $}}{}{}M32\discretionary {\unhbox \voidb@x \hbox {\relax \fontsize  {7}{8}\selectfont  $\leftarrow \joinrel  \rhook $}}{}{}F4xx\discretionary {\unhbox \voidb@x \hbox {\relax \fontsize  {7}{8}\selectfont  $\leftarrow \joinrel  \rhook $}}{}{}\_\discretionary {\unhbox \voidb@x \hbox {\relax \fontsize  {7}{8}\selectfont  $\leftarrow \joinrel  \rhook $}}{}{}\discretionary {\unhbox \voidb@x \hbox {\relax \fontsize  {7}{8}\selectfont  $\leftarrow \joinrel  \rhook $}}{}{}System\discretionary {\unhbox \voidb@x \hbox {\relax \fontsize  {7}{8}\selectfont  $\leftarrow \joinrel  \rhook $}}{}{}\_\discretionary {\unhbox \voidb@x \hbox {\relax \fontsize  {7}{8}\selectfont  $\leftarrow \joinrel  \rhook $}}{}{}\discretionary {\unhbox \voidb@x \hbox {\relax \fontsize  {7}{8}\selectfont  $\leftarrow \joinrel  \rhook $}}{}{}Private\discretionary {\unhbox \voidb@x \hbox {\relax \fontsize  {7}{8}\selectfont  $\leftarrow \joinrel  \rhook $}}{}{}\_\discretionary {\unhbox \voidb@x \hbox {\relax \fontsize  {7}{8}\selectfont  $\leftarrow \joinrel  \rhook $}}{}{}\discretionary {\unhbox \voidb@x \hbox {\relax \fontsize  {7}{8}\selectfont  $\leftarrow \joinrel  \rhook $}}{}{}Functions}{62}{section.4.33}}
\newlabel{group___s_t_m32_f4xx___system___private___functions}{{4.33}{62}{S\+T\+M32\+F4xx\+\_\+\+System\+\_\+\+Private\+\_\+\+Functions}{section.4.33}{}}
\@writefile{toc}{\contentsline {subsection}{\numberline {4.33.1}Detailed Description}{62}{subsection.4.33.1}}
\@writefile{toc}{\contentsline {subsection}{\numberline {4.33.2}Function Documentation}{62}{subsection.4.33.2}}
\newlabel{group___s_t_m32_f4xx___system___private___functions_gae0c36a9591fe6e9c45ecb21a794f0f0f}{{4.33.2}{62}{Function Documentation}{subsection.4.33.2}{}}
\@writefile{toc}{\contentsline {subsubsection}{\numberline {4.33.2.1}System\discretionary {\unhbox \voidb@x \hbox {\relax \fontsize  {7}{8}\selectfont  $\leftarrow \joinrel  \rhook $}}{}{}Core\discretionary {\unhbox \voidb@x \hbox {\relax \fontsize  {7}{8}\selectfont  $\leftarrow \joinrel  \rhook $}}{}{}Clock\discretionary {\unhbox \voidb@x \hbox {\relax \fontsize  {7}{8}\selectfont  $\leftarrow \joinrel  \rhook $}}{}{}Update()}{62}{subsubsection.4.33.2.1}}
\gdef \LT@lxv {\LT@entry 
    {3}{34.30963pt}\LT@entry 
    {3}{12.4pt}}
\gdef \LT@lxvi {\LT@entry 
    {3}{34.30963pt}\LT@entry 
    {3}{12.4pt}}
\gdef \LT@lxvii {\LT@entry 
    {3}{34.30963pt}\LT@entry 
    {3}{12.4pt}}
\newlabel{group___s_t_m32_f4xx___system___private___functions_ga93f514700ccf00d08dbdcff7f1224eb2}{{4.33.2.1}{63}{\texorpdfstring {System\+Core\+Clock\+Update()}{SystemCoreClockUpdate()}}{table.4.65}{}}
\@writefile{toc}{\contentsline {subsubsection}{\numberline {4.33.2.2}System\discretionary {\unhbox \voidb@x \hbox {\relax \fontsize  {7}{8}\selectfont  $\leftarrow \joinrel  \rhook $}}{}{}Init()}{63}{subsubsection.4.33.2.2}}
\@setckpt{group___s_t_m32_f4xx___system___private___functions}{
\setcounter{page}{64}
\setcounter{equation}{0}
\setcounter{enumi}{0}
\setcounter{enumii}{0}
\setcounter{enumiii}{0}
\setcounter{enumiv}{0}
\setcounter{footnote}{0}
\setcounter{mpfootnote}{0}
\setcounter{part}{0}
\setcounter{chapter}{4}
\setcounter{section}{33}
\setcounter{subsection}{2}
\setcounter{subsubsection}{2}
\setcounter{paragraph}{0}
\setcounter{subparagraph}{0}
\setcounter{figure}{0}
\setcounter{table}{67}
\setcounter{float@type}{4}
\setcounter{LT@tables}{67}
\setcounter{LT@chunks}{3}
\setcounter{NAT@ctr}{0}
\setcounter{lofdepth}{1}
\setcounter{lotdepth}{1}
\setcounter{Item}{0}
\setcounter{Hfootnote}{0}
\setcounter{bookmark@seq@number}{163}
\setcounter{ContinuedFloat}{0}
\setcounter{section@level}{3}
}
