\relax 
\providecommand\hyper@newdestlabel[2]{}
\gdef \LT@xxv {\LT@entry 
    {3}{32.30266pt}\LT@entry 
    {3}{112.25307pt}}
\@writefile{toc}{\contentsline {section}{\numberline {4.15}Blacklist}{27}{section.4.15}}
\newlabel{group___blacklist}{{4.15}{27}{Blacklist}{section.4.15}{}}
\@writefile{toc}{\contentsline {subsection}{\numberline {4.15.1}Detailed Description}{27}{subsection.4.15.1}}
\@writefile{toc}{\contentsline {subsection}{\numberline {4.15.2}Function Documentation}{27}{subsection.4.15.2}}
\newlabel{group___blacklist_ga5574133f72398b7fcbe4a3d8a4c886f3}{{4.15.2}{27}{Function Documentation}{subsection.4.15.2}{}}
\@writefile{toc}{\contentsline {subsubsection}{\numberline {4.15.2.1}api\discretionary {\unhbox \voidb@x \hbox {\relax \fontsize  {7}{8}\selectfont  $\leftarrow \joinrel  \rhook $}}{}{}Dnfcc\discretionary {\unhbox \voidb@x \hbox {\relax \fontsize  {7}{8}\selectfont  $\leftarrow \joinrel  \rhook $}}{}{}Verify\discretionary {\unhbox \voidb@x \hbox {\relax \fontsize  {7}{8}\selectfont  $\leftarrow \joinrel  \rhook $}}{}{}Card\discretionary {\unhbox \voidb@x \hbox {\relax \fontsize  {7}{8}\selectfont  $\leftarrow \joinrel  \rhook $}}{}{}Is\discretionary {\unhbox \voidb@x \hbox {\relax \fontsize  {7}{8}\selectfont  $\leftarrow \joinrel  \rhook $}}{}{}Not\discretionary {\unhbox \voidb@x \hbox {\relax \fontsize  {7}{8}\selectfont  $\leftarrow \joinrel  \rhook $}}{}{}In\discretionary {\unhbox \voidb@x \hbox {\relax \fontsize  {7}{8}\selectfont  $\leftarrow \joinrel  \rhook $}}{}{}Blacklist()}{27}{subsubsection.4.15.2.1}}
\@setckpt{group___blacklist}{
\setcounter{page}{28}
\setcounter{equation}{0}
\setcounter{enumi}{0}
\setcounter{enumii}{0}
\setcounter{enumiii}{0}
\setcounter{enumiv}{0}
\setcounter{footnote}{0}
\setcounter{mpfootnote}{0}
\setcounter{part}{0}
\setcounter{chapter}{4}
\setcounter{section}{15}
\setcounter{subsection}{2}
\setcounter{subsubsection}{1}
\setcounter{paragraph}{0}
\setcounter{subparagraph}{0}
\setcounter{figure}{0}
\setcounter{table}{25}
\setcounter{float@type}{4}
\setcounter{LT@tables}{25}
\setcounter{LT@chunks}{3}
\setcounter{NAT@ctr}{0}
\setcounter{lofdepth}{1}
\setcounter{lotdepth}{1}
\setcounter{Item}{0}
\setcounter{Hfootnote}{0}
\setcounter{bookmark@seq@number}{53}
\setcounter{ContinuedFloat}{0}
\setcounter{section@level}{3}
}
