\relax 
\providecommand\hyper@newdestlabel[2]{}
\gdef \LT@xxx {\LT@entry 
    {3}{22.8078pt}\LT@entry 
    {3}{157.68388pt}}
\gdef \LT@xxxi {\LT@entry 
    {3}{22.8078pt}\LT@entry 
    {3}{157.68388pt}}
\@writefile{toc}{\contentsline {section}{\numberline {4.17}L\discretionary {\unhbox \voidb@x \hbox {\relax \fontsize  {7}{8}\selectfont  $\leftarrow \joinrel  \rhook $}}{}{}E\discretionary {\unhbox \voidb@x \hbox {\relax \fontsize  {7}{8}\selectfont  $\leftarrow \joinrel  \rhook $}}{}{}D\discretionary {\unhbox \voidb@x \hbox {\relax \fontsize  {7}{8}\selectfont  $\leftarrow \joinrel  \rhook $}}{}{}\_\discretionary {\unhbox \voidb@x \hbox {\relax \fontsize  {7}{8}\selectfont  $\leftarrow \joinrel  \rhook $}}{}{}control}{30}{section.4.17}}
\newlabel{group___l_e_d__control}{{4.17}{30}{L\+E\+D\+\_\+control}{section.4.17}{}}
\@writefile{toc}{\contentsline {subsection}{\numberline {4.17.1}Detailed Description}{30}{subsection.4.17.1}}
\@writefile{toc}{\contentsline {subsection}{\numberline {4.17.2}Function Documentation}{30}{subsection.4.17.2}}
\newlabel{group___l_e_d__control_ga8c931b36d5cbc222b9f50841dc00062a}{{4.17.2}{30}{Function Documentation}{subsection.4.17.2}{}}
\@writefile{toc}{\contentsline {subsubsection}{\numberline {4.17.2.1}api\discretionary {\unhbox \voidb@x \hbox {\relax \fontsize  {7}{8}\selectfont  $\leftarrow \joinrel  \rhook $}}{}{}Dnfcc\discretionary {\unhbox \voidb@x \hbox {\relax \fontsize  {7}{8}\selectfont  $\leftarrow \joinrel  \rhook $}}{}{}Display\discretionary {\unhbox \voidb@x \hbox {\relax \fontsize  {7}{8}\selectfont  $\leftarrow \joinrel  \rhook $}}{}{}Led\discretionary {\unhbox \voidb@x \hbox {\relax \fontsize  {7}{8}\selectfont  $\leftarrow \joinrel  \rhook $}}{}{}Control\discretionary {\unhbox \voidb@x \hbox {\relax \fontsize  {7}{8}\selectfont  $\leftarrow \joinrel  \rhook $}}{}{}Blue()}{30}{subsubsection.4.17.2.1}}
\newlabel{group___l_e_d__control_ga4df46fc335595e3f51c0ba2e072de980}{{4.17.2.1}{30}{\texorpdfstring {api\+Dnfcc\+Display\+Led\+Control\+Blue()}{apiDnfccDisplayLedControlBlue()}}{table.4.30}{}}
\@writefile{toc}{\contentsline {subsubsection}{\numberline {4.17.2.2}api\discretionary {\unhbox \voidb@x \hbox {\relax \fontsize  {7}{8}\selectfont  $\leftarrow \joinrel  \rhook $}}{}{}Dnfcc\discretionary {\unhbox \voidb@x \hbox {\relax \fontsize  {7}{8}\selectfont  $\leftarrow \joinrel  \rhook $}}{}{}Display\discretionary {\unhbox \voidb@x \hbox {\relax \fontsize  {7}{8}\selectfont  $\leftarrow \joinrel  \rhook $}}{}{}Led\discretionary {\unhbox \voidb@x \hbox {\relax \fontsize  {7}{8}\selectfont  $\leftarrow \joinrel  \rhook $}}{}{}Control\discretionary {\unhbox \voidb@x \hbox {\relax \fontsize  {7}{8}\selectfont  $\leftarrow \joinrel  \rhook $}}{}{}Green()}{30}{subsubsection.4.17.2.2}}
\newlabel{group___l_e_d__control_gade2d65216702119ce401129e001ccb8a}{{4.17.2.2}{30}{\texorpdfstring {api\+Dnfcc\+Display\+Led\+Control\+Green()}{apiDnfccDisplayLedControlGreen()}}{table.4.31}{}}
\@writefile{toc}{\contentsline {subsubsection}{\numberline {4.17.2.3}api\discretionary {\unhbox \voidb@x \hbox {\relax \fontsize  {7}{8}\selectfont  $\leftarrow \joinrel  \rhook $}}{}{}Dnfcc\discretionary {\unhbox \voidb@x \hbox {\relax \fontsize  {7}{8}\selectfont  $\leftarrow \joinrel  \rhook $}}{}{}Display\discretionary {\unhbox \voidb@x \hbox {\relax \fontsize  {7}{8}\selectfont  $\leftarrow \joinrel  \rhook $}}{}{}Led\discretionary {\unhbox \voidb@x \hbox {\relax \fontsize  {7}{8}\selectfont  $\leftarrow \joinrel  \rhook $}}{}{}Control\discretionary {\unhbox \voidb@x \hbox {\relax \fontsize  {7}{8}\selectfont  $\leftarrow \joinrel  \rhook $}}{}{}Red()}{30}{subsubsection.4.17.2.3}}
\gdef \LT@xxxii {\LT@entry 
    {3}{22.8078pt}\LT@entry 
    {3}{157.68388pt}}
\@setckpt{group___l_e_d__control}{
\setcounter{page}{32}
\setcounter{equation}{0}
\setcounter{enumi}{0}
\setcounter{enumii}{0}
\setcounter{enumiii}{0}
\setcounter{enumiv}{0}
\setcounter{footnote}{0}
\setcounter{mpfootnote}{0}
\setcounter{part}{0}
\setcounter{chapter}{4}
\setcounter{section}{17}
\setcounter{subsection}{2}
\setcounter{subsubsection}{3}
\setcounter{paragraph}{0}
\setcounter{subparagraph}{0}
\setcounter{figure}{0}
\setcounter{table}{32}
\setcounter{float@type}{4}
\setcounter{LT@tables}{32}
\setcounter{LT@chunks}{3}
\setcounter{NAT@ctr}{0}
\setcounter{lofdepth}{1}
\setcounter{lotdepth}{1}
\setcounter{Item}{0}
\setcounter{Hfootnote}{0}
\setcounter{bookmark@seq@number}{66}
\setcounter{ContinuedFloat}{0}
\setcounter{section@level}{3}
}
