\relax 
\providecommand\hyper@newdestlabel[2]{}
\gdef \LT@xxxiii {\LT@entry 
    {3}{32.31155pt}\LT@entry 
    {3}{76.93733pt}}
\@writefile{toc}{\contentsline {section}{\numberline {4.18}Priority}{32}{section.4.18}}
\newlabel{group___priority}{{4.18}{32}{Priority}{section.4.18}{}}
\@writefile{toc}{\contentsline {subsection}{\numberline {4.18.1}Detailed Description}{32}{subsection.4.18.1}}
\@writefile{toc}{\contentsline {subsection}{\numberline {4.18.2}Function Documentation}{32}{subsection.4.18.2}}
\newlabel{group___priority_gaed8a83151f05156259a1b11e0b0178f3}{{4.18.2}{32}{Function Documentation}{subsection.4.18.2}{}}
\@writefile{toc}{\contentsline {subsubsection}{\numberline {4.18.2.1}api\discretionary {\unhbox \voidb@x \hbox {\relax \fontsize  {7}{8}\selectfont  $\leftarrow \joinrel  \rhook $}}{}{}Dnfcc\discretionary {\unhbox \voidb@x \hbox {\relax \fontsize  {7}{8}\selectfont  $\leftarrow \joinrel  \rhook $}}{}{}Get\discretionary {\unhbox \voidb@x \hbox {\relax \fontsize  {7}{8}\selectfont  $\leftarrow \joinrel  \rhook $}}{}{}Priority()}{32}{subsubsection.4.18.2.1}}
\newlabel{group___priority_ga34a295d87866f6dde73cd387a8ea9d76}{{4.18.2.1}{32}{\texorpdfstring {api\+Dnfcc\+Get\+Priority()}{apiDnfccGetPriority()}}{subsubsection.4.18.2.1}{}}
\@writefile{toc}{\contentsline {subsubsection}{\numberline {4.18.2.2}api\discretionary {\unhbox \voidb@x \hbox {\relax \fontsize  {7}{8}\selectfont  $\leftarrow \joinrel  \rhook $}}{}{}Dnfcc\discretionary {\unhbox \voidb@x \hbox {\relax \fontsize  {7}{8}\selectfont  $\leftarrow \joinrel  \rhook $}}{}{}Set\discretionary {\unhbox \voidb@x \hbox {\relax \fontsize  {7}{8}\selectfont  $\leftarrow \joinrel  \rhook $}}{}{}Priority\discretionary {\unhbox \voidb@x \hbox {\relax \fontsize  {7}{8}\selectfont  $\leftarrow \joinrel  \rhook $}}{}{}To()}{32}{subsubsection.4.18.2.2}}
\@setckpt{group___priority}{
\setcounter{page}{33}
\setcounter{equation}{0}
\setcounter{enumi}{0}
\setcounter{enumii}{0}
\setcounter{enumiii}{0}
\setcounter{enumiv}{0}
\setcounter{footnote}{0}
\setcounter{mpfootnote}{0}
\setcounter{part}{0}
\setcounter{chapter}{4}
\setcounter{section}{18}
\setcounter{subsection}{2}
\setcounter{subsubsection}{2}
\setcounter{paragraph}{0}
\setcounter{subparagraph}{0}
\setcounter{figure}{0}
\setcounter{table}{33}
\setcounter{float@type}{4}
\setcounter{LT@tables}{33}
\setcounter{LT@chunks}{3}
\setcounter{NAT@ctr}{0}
\setcounter{lofdepth}{1}
\setcounter{lotdepth}{1}
\setcounter{Item}{0}
\setcounter{Hfootnote}{0}
\setcounter{bookmark@seq@number}{71}
\setcounter{ContinuedFloat}{0}
\setcounter{section@level}{3}
}
