\relax 
\providecommand\hyper@newdestlabel[2]{}
\gdef \LT@xxvi {\LT@entry 
    {3}{49.80725pt}\LT@entry 
    {3}{143.79697pt}}
\gdef \LT@xxvii {\LT@entry 
    {3}{49.80725pt}\LT@entry 
    {3}{143.79697pt}}
\@writefile{toc}{\contentsline {section}{\numberline {4.16}Flow\discretionary {\unhbox \voidb@x \hbox {\relax \fontsize  {7}{8}\selectfont  $\leftarrow \joinrel  \rhook $}}{}{}Controller}{28}{section.4.16}}
\newlabel{group___flow_controller}{{4.16}{28}{Flow\+Controller}{section.4.16}{}}
\@writefile{toc}{\contentsline {subsection}{\numberline {4.16.1}Detailed Description}{28}{subsection.4.16.1}}
\@writefile{toc}{\contentsline {subsection}{\numberline {4.16.2}Function Documentation}{28}{subsection.4.16.2}}
\newlabel{group___flow_controller_ga3c5dfedd700244f8f9b9e30320cf0c5b}{{4.16.2}{28}{Function Documentation}{subsection.4.16.2}{}}
\@writefile{toc}{\contentsline {subsubsection}{\numberline {4.16.2.1}api\discretionary {\unhbox \voidb@x \hbox {\relax \fontsize  {7}{8}\selectfont  $\leftarrow \joinrel  \rhook $}}{}{}Dnfcc\discretionary {\unhbox \voidb@x \hbox {\relax \fontsize  {7}{8}\selectfont  $\leftarrow \joinrel  \rhook $}}{}{}Flow\discretionary {\unhbox \voidb@x \hbox {\relax \fontsize  {7}{8}\selectfont  $\leftarrow \joinrel  \rhook $}}{}{}Controller\discretionary {\unhbox \voidb@x \hbox {\relax \fontsize  {7}{8}\selectfont  $\leftarrow \joinrel  \rhook $}}{}{}\_\discretionary {\unhbox \voidb@x \hbox {\relax \fontsize  {7}{8}\selectfont  $\leftarrow \joinrel  \rhook $}}{}{}disable\discretionary {\unhbox \voidb@x \hbox {\relax \fontsize  {7}{8}\selectfont  $\leftarrow \joinrel  \rhook $}}{}{}Debug()}{28}{subsubsection.4.16.2.1}}
\newlabel{group___flow_controller_ga0304774e3e76341632815d590ed10919}{{4.16.2.1}{28}{\texorpdfstring {api\+Dnfcc\+Flow\+Controller\+\_\+disable\+Debug()}{apiDnfccFlowController\_disableDebug()}}{table.4.26}{}}
\@writefile{toc}{\contentsline {subsubsection}{\numberline {4.16.2.2}api\discretionary {\unhbox \voidb@x \hbox {\relax \fontsize  {7}{8}\selectfont  $\leftarrow \joinrel  \rhook $}}{}{}Dnfcc\discretionary {\unhbox \voidb@x \hbox {\relax \fontsize  {7}{8}\selectfont  $\leftarrow \joinrel  \rhook $}}{}{}Flow\discretionary {\unhbox \voidb@x \hbox {\relax \fontsize  {7}{8}\selectfont  $\leftarrow \joinrel  \rhook $}}{}{}Controller\discretionary {\unhbox \voidb@x \hbox {\relax \fontsize  {7}{8}\selectfont  $\leftarrow \joinrel  \rhook $}}{}{}\_\discretionary {\unhbox \voidb@x \hbox {\relax \fontsize  {7}{8}\selectfont  $\leftarrow \joinrel  \rhook $}}{}{}enable\discretionary {\unhbox \voidb@x \hbox {\relax \fontsize  {7}{8}\selectfont  $\leftarrow \joinrel  \rhook $}}{}{}Debug()}{28}{subsubsection.4.16.2.2}}
\newlabel{group___flow_controller_ga2dae7bd28a55c75ccf448e80795a518a}{{4.16.2.2}{28}{\texorpdfstring {api\+Dnfcc\+Flow\+Controller\+\_\+enable\+Debug()}{apiDnfccFlowController\_enableDebug()}}{table.4.27}{}}
\gdef \LT@xxviii {\LT@entry 
    {3}{76.14096pt}\LT@entry 
    {3}{386.26163pt}}
\gdef \LT@xxix {\LT@entry 
    {3}{49.80725pt}\LT@entry 
    {3}{182.89214pt}}
\@writefile{toc}{\contentsline {subsubsection}{\numberline {4.16.2.3}api\discretionary {\unhbox \voidb@x \hbox {\relax \fontsize  {7}{8}\selectfont  $\leftarrow \joinrel  \rhook $}}{}{}Dnfcc\discretionary {\unhbox \voidb@x \hbox {\relax \fontsize  {7}{8}\selectfont  $\leftarrow \joinrel  \rhook $}}{}{}Flow\discretionary {\unhbox \voidb@x \hbox {\relax \fontsize  {7}{8}\selectfont  $\leftarrow \joinrel  \rhook $}}{}{}Controller\discretionary {\unhbox \voidb@x \hbox {\relax \fontsize  {7}{8}\selectfont  $\leftarrow \joinrel  \rhook $}}{}{}\_\discretionary {\unhbox \voidb@x \hbox {\relax \fontsize  {7}{8}\selectfont  $\leftarrow \joinrel  \rhook $}}{}{}init\discretionary {\unhbox \voidb@x \hbox {\relax \fontsize  {7}{8}\selectfont  $\leftarrow \joinrel  \rhook $}}{}{}Flow()}{29}{subsubsection.4.16.2.3}}
\newlabel{group___flow_controller_gaf05d0eec14d3cf6457835a88fa8febfb}{{4.16.2.3}{29}{\texorpdfstring {api\+Dnfcc\+Flow\+Controller\+\_\+init\+Flow()}{apiDnfccFlowController\_initFlow()}}{table.4.28}{}}
\@writefile{toc}{\contentsline {subsubsection}{\numberline {4.16.2.4}api\discretionary {\unhbox \voidb@x \hbox {\relax \fontsize  {7}{8}\selectfont  $\leftarrow \joinrel  \rhook $}}{}{}Dnfcc\discretionary {\unhbox \voidb@x \hbox {\relax \fontsize  {7}{8}\selectfont  $\leftarrow \joinrel  \rhook $}}{}{}Flow\discretionary {\unhbox \voidb@x \hbox {\relax \fontsize  {7}{8}\selectfont  $\leftarrow \joinrel  \rhook $}}{}{}Controller\discretionary {\unhbox \voidb@x \hbox {\relax \fontsize  {7}{8}\selectfont  $\leftarrow \joinrel  \rhook $}}{}{}\_\discretionary {\unhbox \voidb@x \hbox {\relax \fontsize  {7}{8}\selectfont  $\leftarrow \joinrel  \rhook $}}{}{}run\discretionary {\unhbox \voidb@x \hbox {\relax \fontsize  {7}{8}\selectfont  $\leftarrow \joinrel  \rhook $}}{}{}Next\discretionary {\unhbox \voidb@x \hbox {\relax \fontsize  {7}{8}\selectfont  $\leftarrow \joinrel  \rhook $}}{}{}Step()}{29}{subsubsection.4.16.2.4}}
\@setckpt{group___flow_controller}{
\setcounter{page}{30}
\setcounter{equation}{0}
\setcounter{enumi}{0}
\setcounter{enumii}{0}
\setcounter{enumiii}{0}
\setcounter{enumiv}{0}
\setcounter{footnote}{0}
\setcounter{mpfootnote}{0}
\setcounter{part}{0}
\setcounter{chapter}{4}
\setcounter{section}{16}
\setcounter{subsection}{2}
\setcounter{subsubsection}{4}
\setcounter{paragraph}{0}
\setcounter{subparagraph}{0}
\setcounter{figure}{0}
\setcounter{table}{29}
\setcounter{float@type}{4}
\setcounter{LT@tables}{29}
\setcounter{LT@chunks}{3}
\setcounter{NAT@ctr}{0}
\setcounter{lofdepth}{1}
\setcounter{lotdepth}{1}
\setcounter{Item}{0}
\setcounter{Hfootnote}{0}
\setcounter{bookmark@seq@number}{60}
\setcounter{ContinuedFloat}{0}
\setcounter{section@level}{3}
}
