\relax 
\providecommand\hyper@newdestlabel[2]{}
\gdef \LT@xliv {\LT@entry 
    {3}{50.5721pt}\LT@entry 
    {3}{108.77896pt}}
\@writefile{toc}{\contentsline {section}{\numberline {4.21}Canbus}{40}{section.4.21}}
\newlabel{group__canbus}{{4.21}{40}{Canbus}{section.4.21}{}}
\newlabel{group__canbus_ga414a39e2773c7e6cdb20a9ca4bbed1f5}{{4.21}{40}{Functions}{section*.23}{}}
\@writefile{toc}{\contentsline {subsection}{\numberline {4.21.1}Detailed Description}{40}{subsection.4.21.1}}
\@writefile{toc}{\contentsline {subsection}{\numberline {4.21.2}Function Documentation}{40}{subsection.4.21.2}}
\newlabel{group__canbus_gad74ff882368b6ec7f88381c266d324cb}{{4.21.2}{40}{Function Documentation}{subsection.4.21.2}{}}
\@writefile{toc}{\contentsline {subsubsection}{\numberline {4.21.2.1}nfcc\discretionary {\unhbox \voidb@x \hbox {\relax \fontsize  {7}{8}\selectfont  $\leftarrow \joinrel  \rhook $}}{}{}Can\discretionary {\unhbox \voidb@x \hbox {\relax \fontsize  {7}{8}\selectfont  $\leftarrow \joinrel  \rhook $}}{}{}Bus\discretionary {\unhbox \voidb@x \hbox {\relax \fontsize  {7}{8}\selectfont  $\leftarrow \joinrel  \rhook $}}{}{}Init()}{40}{subsubsection.4.21.2.1}}
\newlabel{group__canbus_gafe4e1250adecfabb82dff76f5ede49cd}{{4.21.2.1}{40}{\texorpdfstring {nfcc\+Can\+Bus\+Init()}{nfccCanBusInit()}}{table.4.44}{}}
\@writefile{toc}{\contentsline {subsubsection}{\numberline {4.21.2.2}nfcc\discretionary {\unhbox \voidb@x \hbox {\relax \fontsize  {7}{8}\selectfont  $\leftarrow \joinrel  \rhook $}}{}{}Canbus\discretionary {\unhbox \voidb@x \hbox {\relax \fontsize  {7}{8}\selectfont  $\leftarrow \joinrel  \rhook $}}{}{}Init\discretionary {\unhbox \voidb@x \hbox {\relax \fontsize  {7}{8}\selectfont  $\leftarrow \joinrel  \rhook $}}{}{}Hardware()}{40}{subsubsection.4.21.2.2}}
\newlabel{group__canbus_gabe4abf0090bde6a4c979065c7602ce72}{{4.21.2.2}{40}{\texorpdfstring {nfcc\+Canbus\+Init\+Hardware()}{nfccCanbusInitHardware()}}{subsubsection.4.21.2.2}{}}
\@writefile{toc}{\contentsline {subsubsection}{\numberline {4.21.2.3}nfcc\discretionary {\unhbox \voidb@x \hbox {\relax \fontsize  {7}{8}\selectfont  $\leftarrow \joinrel  \rhook $}}{}{}Can\discretionary {\unhbox \voidb@x \hbox {\relax \fontsize  {7}{8}\selectfont  $\leftarrow \joinrel  \rhook $}}{}{}Transmit\discretionary {\unhbox \voidb@x \hbox {\relax \fontsize  {7}{8}\selectfont  $\leftarrow \joinrel  \rhook $}}{}{}Message()}{40}{subsubsection.4.21.2.3}}
\@writefile{toc}{\contentsline {subsection}{\numberline {4.21.3}Variable Documentation}{41}{subsection.4.21.3}}
\newlabel{group__canbus_gad1292a18e0f67ea48e8298b2f1a4f6cb}{{4.21.3}{41}{Variable Documentation}{subsection.4.21.3}{}}
\@writefile{toc}{\contentsline {subsubsection}{\numberline {4.21.3.1}dnfcc\discretionary {\unhbox \voidb@x \hbox {\relax \fontsize  {7}{8}\selectfont  $\leftarrow \joinrel  \rhook $}}{}{}Canbus\discretionary {\unhbox \voidb@x \hbox {\relax \fontsize  {7}{8}\selectfont  $\leftarrow \joinrel  \rhook $}}{}{}Id}{41}{subsubsection.4.21.3.1}}
\@setckpt{group__canbus}{
\setcounter{page}{42}
\setcounter{equation}{0}
\setcounter{enumi}{0}
\setcounter{enumii}{0}
\setcounter{enumiii}{0}
\setcounter{enumiv}{0}
\setcounter{footnote}{0}
\setcounter{mpfootnote}{0}
\setcounter{part}{0}
\setcounter{chapter}{4}
\setcounter{section}{21}
\setcounter{subsection}{3}
\setcounter{subsubsection}{1}
\setcounter{paragraph}{0}
\setcounter{subparagraph}{0}
\setcounter{figure}{0}
\setcounter{table}{44}
\setcounter{float@type}{4}
\setcounter{LT@tables}{44}
\setcounter{LT@chunks}{3}
\setcounter{NAT@ctr}{0}
\setcounter{lofdepth}{1}
\setcounter{lotdepth}{1}
\setcounter{Item}{0}
\setcounter{Hfootnote}{0}
\setcounter{bookmark@seq@number}{103}
\setcounter{ContinuedFloat}{0}
\setcounter{section@level}{3}
}
