\relax 
\providecommand\hyper@newdestlabel[2]{}
\@writefile{toc}{\contentsline {section}{\numberline {4.22}Clock}{42}{section.4.22}}
\newlabel{group___clock}{{4.22}{42}{Clock}{section.4.22}{}}
\newlabel{group___clock_gafed4f29eda0f2d0900a0b347e29a8c91}{{4.22}{42}{Variables}{section*.27}{}}
\newlabel{group___clock_gaa805acf5185e2a95f250a2da91bf84e0}{{4.22}{42}{Variables}{section*.27}{}}
\@writefile{toc}{\contentsline {subsection}{\numberline {4.22.1}Detailed Description}{42}{subsection.4.22.1}}
\@writefile{toc}{\contentsline {subsection}{\numberline {4.22.2}Macro Definition Documentation}{42}{subsection.4.22.2}}
\newlabel{group___clock_ga6423a880df59733d2d9b509c7718d3a9}{{4.22.2}{42}{Macro Definition Documentation}{subsection.4.22.2}{}}
\gdef \LT@xlv {\LT@entry 
    {3}{19.80185pt}\LT@entry 
    {3}{251.57866pt}}
\gdef \LT@xlvi {\LT@entry 
    {3}{25.3097pt}\LT@entry 
    {3}{119.7853pt}}
\@writefile{toc}{\contentsline {subsubsection}{\numberline {4.22.2.1}S\discretionary {\unhbox \voidb@x \hbox {\relax \fontsize  {7}{8}\selectfont  $\leftarrow \joinrel  \rhook $}}{}{}T\discretionary {\unhbox \voidb@x \hbox {\relax \fontsize  {7}{8}\selectfont  $\leftarrow \joinrel  \rhook $}}{}{}A\discretionary {\unhbox \voidb@x \hbox {\relax \fontsize  {7}{8}\selectfont  $\leftarrow \joinrel  \rhook $}}{}{}C\discretionary {\unhbox \voidb@x \hbox {\relax \fontsize  {7}{8}\selectfont  $\leftarrow \joinrel  \rhook $}}{}{}K\discretionary {\unhbox \voidb@x \hbox {\relax \fontsize  {7}{8}\selectfont  $\leftarrow \joinrel  \rhook $}}{}{}\_\discretionary {\unhbox \voidb@x \hbox {\relax \fontsize  {7}{8}\selectfont  $\leftarrow \joinrel  \rhook $}}{}{}\discretionary {\unhbox \voidb@x \hbox {\relax \fontsize  {7}{8}\selectfont  $\leftarrow \joinrel  \rhook $}}{}{}S\discretionary {\unhbox \voidb@x \hbox {\relax \fontsize  {7}{8}\selectfont  $\leftarrow \joinrel  \rhook $}}{}{}I\discretionary {\unhbox \voidb@x \hbox {\relax \fontsize  {7}{8}\selectfont  $\leftarrow \joinrel  \rhook $}}{}{}ZE}{43}{subsubsection.4.22.2.1}}
\@writefile{toc}{\contentsline {subsection}{\numberline {4.22.3}Function Documentation}{43}{subsection.4.22.3}}
\newlabel{group___clock_ga0ae8be040ce60a740db747339066b863}{{4.22.3}{43}{Function Documentation}{subsection.4.22.3}{}}
\@writefile{toc}{\contentsline {subsubsection}{\numberline {4.22.3.1}api\discretionary {\unhbox \voidb@x \hbox {\relax \fontsize  {7}{8}\selectfont  $\leftarrow \joinrel  \rhook $}}{}{}Dnfcc\discretionary {\unhbox \voidb@x \hbox {\relax \fontsize  {7}{8}\selectfont  $\leftarrow \joinrel  \rhook $}}{}{}Clock\discretionary {\unhbox \voidb@x \hbox {\relax \fontsize  {7}{8}\selectfont  $\leftarrow \joinrel  \rhook $}}{}{}Compare\discretionary {\unhbox \voidb@x \hbox {\relax \fontsize  {7}{8}\selectfont  $\leftarrow \joinrel  \rhook $}}{}{}With\discretionary {\unhbox \voidb@x \hbox {\relax \fontsize  {7}{8}\selectfont  $\leftarrow \joinrel  \rhook $}}{}{}Now()}{43}{subsubsection.4.22.3.1}}
\newlabel{group___clock_gaffb7500dbc66f74fccf87baebfd82dfe}{{4.22.3.1}{43}{\texorpdfstring {api\+Dnfcc\+Clock\+Compare\+With\+Now()}{apiDnfccClockCompareWithNow()}}{table.4.45}{}}
\@writefile{toc}{\contentsline {subsubsection}{\numberline {4.22.3.2}api\discretionary {\unhbox \voidb@x \hbox {\relax \fontsize  {7}{8}\selectfont  $\leftarrow \joinrel  \rhook $}}{}{}Dnfcc\discretionary {\unhbox \voidb@x \hbox {\relax \fontsize  {7}{8}\selectfont  $\leftarrow \joinrel  \rhook $}}{}{}Clock\discretionary {\unhbox \voidb@x \hbox {\relax \fontsize  {7}{8}\selectfont  $\leftarrow \joinrel  \rhook $}}{}{}Fetch\discretionary {\unhbox \voidb@x \hbox {\relax \fontsize  {7}{8}\selectfont  $\leftarrow \joinrel  \rhook $}}{}{}Date()}{43}{subsubsection.4.22.3.2}}
\newlabel{group___clock_gaef02c78379558f5261a2663617c0c964}{{4.22.3.2}{43}{\texorpdfstring {api\+Dnfcc\+Clock\+Fetch\+Date()}{apiDnfccClockFetchDate()}}{table.4.46}{}}
\@writefile{toc}{\contentsline {subsubsection}{\numberline {4.22.3.3}api\discretionary {\unhbox \voidb@x \hbox {\relax \fontsize  {7}{8}\selectfont  $\leftarrow \joinrel  \rhook $}}{}{}Dnfcc\discretionary {\unhbox \voidb@x \hbox {\relax \fontsize  {7}{8}\selectfont  $\leftarrow \joinrel  \rhook $}}{}{}Clock\discretionary {\unhbox \voidb@x \hbox {\relax \fontsize  {7}{8}\selectfont  $\leftarrow \joinrel  \rhook $}}{}{}Fetch\discretionary {\unhbox \voidb@x \hbox {\relax \fontsize  {7}{8}\selectfont  $\leftarrow \joinrel  \rhook $}}{}{}Date\discretionary {\unhbox \voidb@x \hbox {\relax \fontsize  {7}{8}\selectfont  $\leftarrow \joinrel  \rhook $}}{}{}Human()}{43}{subsubsection.4.22.3.3}}
\gdef \LT@xlvii {\LT@entry 
    {3}{25.3097pt}\LT@entry 
    {3}{119.7853pt}}
\gdef \LT@xlviii {\LT@entry 
    {3}{25.3097pt}\LT@entry 
    {3}{119.7853pt}}
\gdef \LT@xlix {\LT@entry 
    {3}{25.3097pt}\LT@entry 
    {3}{119.7853pt}}
\gdef \LT@l {\LT@entry 
    {3}{25.3097pt}\LT@entry 
    {3}{119.27234pt}}
\newlabel{group___clock_ga06f6eb9d06b5016df6ebfcad14909984}{{4.22.3.3}{44}{\texorpdfstring {api\+Dnfcc\+Clock\+Fetch\+Date\+Human()}{apiDnfccClockFetchDateHuman()}}{table.4.47}{}}
\@writefile{toc}{\contentsline {subsubsection}{\numberline {4.22.3.4}api\discretionary {\unhbox \voidb@x \hbox {\relax \fontsize  {7}{8}\selectfont  $\leftarrow \joinrel  \rhook $}}{}{}Dnfcc\discretionary {\unhbox \voidb@x \hbox {\relax \fontsize  {7}{8}\selectfont  $\leftarrow \joinrel  \rhook $}}{}{}Clock\discretionary {\unhbox \voidb@x \hbox {\relax \fontsize  {7}{8}\selectfont  $\leftarrow \joinrel  \rhook $}}{}{}Fetch\discretionary {\unhbox \voidb@x \hbox {\relax \fontsize  {7}{8}\selectfont  $\leftarrow \joinrel  \rhook $}}{}{}Date\discretionary {\unhbox \voidb@x \hbox {\relax \fontsize  {7}{8}\selectfont  $\leftarrow \joinrel  \rhook $}}{}{}Time()}{44}{subsubsection.4.22.3.4}}
\newlabel{group___clock_gac7aad56aa0b69c458646f8ca1cb9050c}{{4.22.3.4}{44}{\texorpdfstring {api\+Dnfcc\+Clock\+Fetch\+Date\+Time()}{apiDnfccClockFetchDateTime()}}{table.4.48}{}}
\@writefile{toc}{\contentsline {subsubsection}{\numberline {4.22.3.5}api\discretionary {\unhbox \voidb@x \hbox {\relax \fontsize  {7}{8}\selectfont  $\leftarrow \joinrel  \rhook $}}{}{}Dnfcc\discretionary {\unhbox \voidb@x \hbox {\relax \fontsize  {7}{8}\selectfont  $\leftarrow \joinrel  \rhook $}}{}{}Clock\discretionary {\unhbox \voidb@x \hbox {\relax \fontsize  {7}{8}\selectfont  $\leftarrow \joinrel  \rhook $}}{}{}Fetch\discretionary {\unhbox \voidb@x \hbox {\relax \fontsize  {7}{8}\selectfont  $\leftarrow \joinrel  \rhook $}}{}{}Date\discretionary {\unhbox \voidb@x \hbox {\relax \fontsize  {7}{8}\selectfont  $\leftarrow \joinrel  \rhook $}}{}{}Time\discretionary {\unhbox \voidb@x \hbox {\relax \fontsize  {7}{8}\selectfont  $\leftarrow \joinrel  \rhook $}}{}{}Human()}{44}{subsubsection.4.22.3.5}}
\newlabel{group___clock_ga1e786de7360d275514b851e3029c6989}{{4.22.3.5}{44}{\texorpdfstring {api\+Dnfcc\+Clock\+Fetch\+Date\+Time\+Human()}{apiDnfccClockFetchDateTimeHuman()}}{table.4.49}{}}
\@writefile{toc}{\contentsline {subsubsection}{\numberline {4.22.3.6}api\discretionary {\unhbox \voidb@x \hbox {\relax \fontsize  {7}{8}\selectfont  $\leftarrow \joinrel  \rhook $}}{}{}Dnfcc\discretionary {\unhbox \voidb@x \hbox {\relax \fontsize  {7}{8}\selectfont  $\leftarrow \joinrel  \rhook $}}{}{}Clock\discretionary {\unhbox \voidb@x \hbox {\relax \fontsize  {7}{8}\selectfont  $\leftarrow \joinrel  \rhook $}}{}{}Fetch\discretionary {\unhbox \voidb@x \hbox {\relax \fontsize  {7}{8}\selectfont  $\leftarrow \joinrel  \rhook $}}{}{}Time()}{44}{subsubsection.4.22.3.6}}
\gdef \LT@li {\LT@entry 
    {3}{25.3097pt}\LT@entry 
    {3}{119.27234pt}}
\newlabel{group___clock_ga21c4af6b6dc8281f4e327bd444fee967}{{4.22.3.6}{45}{\texorpdfstring {api\+Dnfcc\+Clock\+Fetch\+Time()}{apiDnfccClockFetchTime()}}{table.4.50}{}}
\@writefile{toc}{\contentsline {subsubsection}{\numberline {4.22.3.7}api\discretionary {\unhbox \voidb@x \hbox {\relax \fontsize  {7}{8}\selectfont  $\leftarrow \joinrel  \rhook $}}{}{}Dnfcc\discretionary {\unhbox \voidb@x \hbox {\relax \fontsize  {7}{8}\selectfont  $\leftarrow \joinrel  \rhook $}}{}{}Clock\discretionary {\unhbox \voidb@x \hbox {\relax \fontsize  {7}{8}\selectfont  $\leftarrow \joinrel  \rhook $}}{}{}Fetch\discretionary {\unhbox \voidb@x \hbox {\relax \fontsize  {7}{8}\selectfont  $\leftarrow \joinrel  \rhook $}}{}{}Time\discretionary {\unhbox \voidb@x \hbox {\relax \fontsize  {7}{8}\selectfont  $\leftarrow \joinrel  \rhook $}}{}{}Human()}{45}{subsubsection.4.22.3.7}}
\newlabel{group___clock_ga0a027880eafbc3c2af9af717730ffada}{{4.22.3.7}{45}{\texorpdfstring {api\+Dnfcc\+Clock\+Fetch\+Time\+Human()}{apiDnfccClockFetchTimeHuman()}}{table.4.51}{}}
\@writefile{toc}{\contentsline {subsubsection}{\numberline {4.22.3.8}int\discretionary {\unhbox \voidb@x \hbox {\relax \fontsize  {7}{8}\selectfont  $\leftarrow \joinrel  \rhook $}}{}{}Dnfcc\discretionary {\unhbox \voidb@x \hbox {\relax \fontsize  {7}{8}\selectfont  $\leftarrow \joinrel  \rhook $}}{}{}Send\discretionary {\unhbox \voidb@x \hbox {\relax \fontsize  {7}{8}\selectfont  $\leftarrow \joinrel  \rhook $}}{}{}Date()}{45}{subsubsection.4.22.3.8}}
\newlabel{group___clock_gacefbf9191869b17d1862d1033a9f4349}{{4.22.3.8}{45}{\texorpdfstring {int\+Dnfcc\+Send\+Date()}{intDnfccSendDate()}}{subsubsection.4.22.3.8}{}}
\@writefile{toc}{\contentsline {subsubsection}{\numberline {4.22.3.9}int\discretionary {\unhbox \voidb@x \hbox {\relax \fontsize  {7}{8}\selectfont  $\leftarrow \joinrel  \rhook $}}{}{}Dnfcc\discretionary {\unhbox \voidb@x \hbox {\relax \fontsize  {7}{8}\selectfont  $\leftarrow \joinrel  \rhook $}}{}{}Send\discretionary {\unhbox \voidb@x \hbox {\relax \fontsize  {7}{8}\selectfont  $\leftarrow \joinrel  \rhook $}}{}{}Time()}{45}{subsubsection.4.22.3.9}}
\newlabel{group___clock_gaa425ecd941fec3f4a6d5666593e90ad6}{{4.22.3.9}{45}{\texorpdfstring {int\+Dnfcc\+Send\+Time()}{intDnfccSendTime()}}{subsubsection.4.22.3.9}{}}
\@writefile{toc}{\contentsline {subsubsection}{\numberline {4.22.3.10}int\discretionary {\unhbox \voidb@x \hbox {\relax \fontsize  {7}{8}\selectfont  $\leftarrow \joinrel  \rhook $}}{}{}Dnfcc\discretionary {\unhbox \voidb@x \hbox {\relax \fontsize  {7}{8}\selectfont  $\leftarrow \joinrel  \rhook $}}{}{}Set\discretionary {\unhbox \voidb@x \hbox {\relax \fontsize  {7}{8}\selectfont  $\leftarrow \joinrel  \rhook $}}{}{}Date()}{45}{subsubsection.4.22.3.10}}
\newlabel{group___clock_ga7f42215c6545882048bafcf8f52f074a}{{4.22.3.10}{45}{\texorpdfstring {int\+Dnfcc\+Set\+Date()}{intDnfccSetDate()}}{subsubsection.4.22.3.10}{}}
\@writefile{toc}{\contentsline {subsubsection}{\numberline {4.22.3.11}int\discretionary {\unhbox \voidb@x \hbox {\relax \fontsize  {7}{8}\selectfont  $\leftarrow \joinrel  \rhook $}}{}{}Dnfcc\discretionary {\unhbox \voidb@x \hbox {\relax \fontsize  {7}{8}\selectfont  $\leftarrow \joinrel  \rhook $}}{}{}Set\discretionary {\unhbox \voidb@x \hbox {\relax \fontsize  {7}{8}\selectfont  $\leftarrow \joinrel  \rhook $}}{}{}Time()}{45}{subsubsection.4.22.3.11}}
\newlabel{group___clock_ga4bbf5ff2497bf60d0023f4e815f186ec}{{4.22.3.11}{45}{\texorpdfstring {int\+Dnfcc\+Set\+Time()}{intDnfccSetTime()}}{subsubsection.4.22.3.11}{}}
\gdef \LT@lii {\LT@entry 
    {3}{27.93759pt}\LT@entry 
    {3}{86.20695pt}}
\@writefile{toc}{\contentsline {subsubsection}{\numberline {4.22.3.12}nfcc\discretionary {\unhbox \voidb@x \hbox {\relax \fontsize  {7}{8}\selectfont  $\leftarrow \joinrel  \rhook $}}{}{}Clock()}{46}{subsubsection.4.22.3.12}}
\newlabel{group___clock_ga0a440e2dea8442ecc34a275d587edd7c}{{4.22.3.12}{46}{\texorpdfstring {nfcc\+Clock()}{nfccClock()}}{subsubsection.4.22.3.12}{}}
\@writefile{toc}{\contentsline {subsubsection}{\numberline {4.22.3.13}nfcc\discretionary {\unhbox \voidb@x \hbox {\relax \fontsize  {7}{8}\selectfont  $\leftarrow \joinrel  \rhook $}}{}{}Clock\discretionary {\unhbox \voidb@x \hbox {\relax \fontsize  {7}{8}\selectfont  $\leftarrow \joinrel  \rhook $}}{}{}Init()}{46}{subsubsection.4.22.3.13}}
\@writefile{toc}{\contentsline {subsection}{\numberline {4.22.4}Variable Documentation}{46}{subsection.4.22.4}}
\newlabel{group___clock_gaa0c7fca836406ade332e1e3f1039d8ab}{{4.22.4}{46}{Variable Documentation}{subsection.4.22.4}{}}
\@writefile{toc}{\contentsline {subsubsection}{\numberline {4.22.4.1}hrtc}{46}{subsubsection.4.22.4.1}}
\@setckpt{group___clock}{
\setcounter{page}{47}
\setcounter{equation}{0}
\setcounter{enumi}{0}
\setcounter{enumii}{0}
\setcounter{enumiii}{0}
\setcounter{enumiv}{0}
\setcounter{footnote}{0}
\setcounter{mpfootnote}{0}
\setcounter{part}{0}
\setcounter{chapter}{4}
\setcounter{section}{22}
\setcounter{subsection}{4}
\setcounter{subsubsection}{1}
\setcounter{paragraph}{0}
\setcounter{subparagraph}{0}
\setcounter{figure}{0}
\setcounter{table}{52}
\setcounter{float@type}{4}
\setcounter{LT@tables}{52}
\setcounter{LT@chunks}{3}
\setcounter{NAT@ctr}{0}
\setcounter{lofdepth}{1}
\setcounter{lotdepth}{1}
\setcounter{Item}{0}
\setcounter{Hfootnote}{0}
\setcounter{bookmark@seq@number}{123}
\setcounter{ContinuedFloat}{0}
\setcounter{section@level}{3}
}
