\relax 
\providecommand\hyper@newdestlabel[2]{}
\gdef \LT@xi {\LT@entry 
    {3}{37.31558pt}\LT@entry 
    {3}{136.29092pt}}
\gdef \LT@xii {\LT@entry 
    {3}{40.3124pt}\LT@entry 
    {3}{87.11641pt}}
\@writefile{toc}{\contentsline {section}{\numberline {4.14}U\discretionary {\unhbox \voidb@x \hbox {\relax \fontsize  {7}{8}\selectfont  $\leftarrow \joinrel  \rhook $}}{}{}S\discretionary {\unhbox \voidb@x \hbox {\relax \fontsize  {7}{8}\selectfont  $\leftarrow \joinrel  \rhook $}}{}{}B\discretionary {\unhbox \voidb@x \hbox {\relax \fontsize  {7}{8}\selectfont  $\leftarrow \joinrel  \rhook $}}{}{}D\discretionary {\unhbox \voidb@x \hbox {\relax \fontsize  {7}{8}\selectfont  $\leftarrow \joinrel  \rhook $}}{}{}\_\discretionary {\unhbox \voidb@x \hbox {\relax \fontsize  {7}{8}\selectfont  $\leftarrow \joinrel  \rhook $}}{}{}\discretionary {\unhbox \voidb@x \hbox {\relax \fontsize  {7}{8}\selectfont  $\leftarrow \joinrel  \rhook $}}{}{}D\discretionary {\unhbox \voidb@x \hbox {\relax \fontsize  {7}{8}\selectfont  $\leftarrow \joinrel  \rhook $}}{}{}E\discretionary {\unhbox \voidb@x \hbox {\relax \fontsize  {7}{8}\selectfont  $\leftarrow \joinrel  \rhook $}}{}{}S\discretionary {\unhbox \voidb@x \hbox {\relax \fontsize  {7}{8}\selectfont  $\leftarrow \joinrel  \rhook $}}{}{}C\discretionary {\unhbox \voidb@x \hbox {\relax \fontsize  {7}{8}\selectfont  $\leftarrow \joinrel  \rhook $}}{}{}\_\discretionary {\unhbox \voidb@x \hbox {\relax \fontsize  {7}{8}\selectfont  $\leftarrow \joinrel  \rhook $}}{}{}\discretionary {\unhbox \voidb@x \hbox {\relax \fontsize  {7}{8}\selectfont  $\leftarrow \joinrel  \rhook $}}{}{}Private\discretionary {\unhbox \voidb@x \hbox {\relax \fontsize  {7}{8}\selectfont  $\leftarrow \joinrel  \rhook $}}{}{}\_\discretionary {\unhbox \voidb@x \hbox {\relax \fontsize  {7}{8}\selectfont  $\leftarrow \joinrel  \rhook $}}{}{}\discretionary {\unhbox \voidb@x \hbox {\relax \fontsize  {7}{8}\selectfont  $\leftarrow \joinrel  \rhook $}}{}{}Functions}{23}{section.4.14}}
\newlabel{group___u_s_b_d___d_e_s_c___private___functions}{{4.14}{23}{U\+S\+B\+D\+\_\+\+D\+E\+S\+C\+\_\+\+Private\+\_\+\+Functions}{section.4.14}{}}
\@writefile{toc}{\contentsline {subsection}{\numberline {4.14.1}Detailed Description}{23}{subsection.4.14.1}}
\@writefile{toc}{\contentsline {subsection}{\numberline {4.14.2}Function Documentation}{23}{subsection.4.14.2}}
\newlabel{group___u_s_b_d___d_e_s_c___private___functions_ga40ed2a0fb60c50a285983a09ba6921d6}{{4.14.2}{23}{Function Documentation}{subsection.4.14.2}{}}
\@writefile{toc}{\contentsline {subsubsection}{\numberline {4.14.2.1}U\discretionary {\unhbox \voidb@x \hbox {\relax \fontsize  {7}{8}\selectfont  $\leftarrow \joinrel  \rhook $}}{}{}S\discretionary {\unhbox \voidb@x \hbox {\relax \fontsize  {7}{8}\selectfont  $\leftarrow \joinrel  \rhook $}}{}{}B\discretionary {\unhbox \voidb@x \hbox {\relax \fontsize  {7}{8}\selectfont  $\leftarrow \joinrel  \rhook $}}{}{}D\discretionary {\unhbox \voidb@x \hbox {\relax \fontsize  {7}{8}\selectfont  $\leftarrow \joinrel  \rhook $}}{}{}\_\discretionary {\unhbox \voidb@x \hbox {\relax \fontsize  {7}{8}\selectfont  $\leftarrow \joinrel  \rhook $}}{}{}\discretionary {\unhbox \voidb@x \hbox {\relax \fontsize  {7}{8}\selectfont  $\leftarrow \joinrel  \rhook $}}{}{}F\discretionary {\unhbox \voidb@x \hbox {\relax \fontsize  {7}{8}\selectfont  $\leftarrow \joinrel  \rhook $}}{}{}S\discretionary {\unhbox \voidb@x \hbox {\relax \fontsize  {7}{8}\selectfont  $\leftarrow \joinrel  \rhook $}}{}{}\_\discretionary {\unhbox \voidb@x \hbox {\relax \fontsize  {7}{8}\selectfont  $\leftarrow \joinrel  \rhook $}}{}{}\discretionary {\unhbox \voidb@x \hbox {\relax \fontsize  {7}{8}\selectfont  $\leftarrow \joinrel  \rhook $}}{}{}Config\discretionary {\unhbox \voidb@x \hbox {\relax \fontsize  {7}{8}\selectfont  $\leftarrow \joinrel  \rhook $}}{}{}Str\discretionary {\unhbox \voidb@x \hbox {\relax \fontsize  {7}{8}\selectfont  $\leftarrow \joinrel  \rhook $}}{}{}Descriptor()}{23}{subsubsection.4.14.2.1}}
\newlabel{group___u_s_b_d___d_e_s_c___private___functions_ga14798be38c08a37163e53167032485ff}{{4.14.2.1}{23}{\texorpdfstring {U\+S\+B\+D\+\_\+\+F\+S\+\_\+\+Config\+Str\+Descriptor()}{USBD\_FS\_ConfigStrDescriptor()}}{table.4.12}{}}
\@writefile{toc}{\contentsline {subsubsection}{\numberline {4.14.2.2}U\discretionary {\unhbox \voidb@x \hbox {\relax \fontsize  {7}{8}\selectfont  $\leftarrow \joinrel  \rhook $}}{}{}S\discretionary {\unhbox \voidb@x \hbox {\relax \fontsize  {7}{8}\selectfont  $\leftarrow \joinrel  \rhook $}}{}{}B\discretionary {\unhbox \voidb@x \hbox {\relax \fontsize  {7}{8}\selectfont  $\leftarrow \joinrel  \rhook $}}{}{}D\discretionary {\unhbox \voidb@x \hbox {\relax \fontsize  {7}{8}\selectfont  $\leftarrow \joinrel  \rhook $}}{}{}\_\discretionary {\unhbox \voidb@x \hbox {\relax \fontsize  {7}{8}\selectfont  $\leftarrow \joinrel  \rhook $}}{}{}\discretionary {\unhbox \voidb@x \hbox {\relax \fontsize  {7}{8}\selectfont  $\leftarrow \joinrel  \rhook $}}{}{}F\discretionary {\unhbox \voidb@x \hbox {\relax \fontsize  {7}{8}\selectfont  $\leftarrow \joinrel  \rhook $}}{}{}S\discretionary {\unhbox \voidb@x \hbox {\relax \fontsize  {7}{8}\selectfont  $\leftarrow \joinrel  \rhook $}}{}{}\_\discretionary {\unhbox \voidb@x \hbox {\relax \fontsize  {7}{8}\selectfont  $\leftarrow \joinrel  \rhook $}}{}{}\discretionary {\unhbox \voidb@x \hbox {\relax \fontsize  {7}{8}\selectfont  $\leftarrow \joinrel  \rhook $}}{}{}Device\discretionary {\unhbox \voidb@x \hbox {\relax \fontsize  {7}{8}\selectfont  $\leftarrow \joinrel  \rhook $}}{}{}Descriptor()}{23}{subsubsection.4.14.2.2}}
\gdef \LT@xiii {\LT@entry 
    {3}{37.31558pt}\LT@entry 
    {3}{136.29092pt}}
\gdef \LT@xiv {\LT@entry 
    {3}{40.3124pt}\LT@entry 
    {3}{87.11641pt}}
\gdef \LT@xv {\LT@entry 
    {3}{37.31558pt}\LT@entry 
    {3}{136.29092pt}}
\gdef \LT@xvi {\LT@entry 
    {3}{40.3124pt}\LT@entry 
    {3}{87.11641pt}}
\gdef \LT@xvii {\LT@entry 
    {3}{37.31558pt}\LT@entry 
    {3}{136.29092pt}}
\newlabel{group___u_s_b_d___d_e_s_c___private___functions_gab248f43276f92d982ab5853111e4fb10}{{4.14.2.2}{24}{\texorpdfstring {U\+S\+B\+D\+\_\+\+F\+S\+\_\+\+Device\+Descriptor()}{USBD\_FS\_DeviceDescriptor()}}{table.4.14}{}}
\@writefile{toc}{\contentsline {subsubsection}{\numberline {4.14.2.3}U\discretionary {\unhbox \voidb@x \hbox {\relax \fontsize  {7}{8}\selectfont  $\leftarrow \joinrel  \rhook $}}{}{}S\discretionary {\unhbox \voidb@x \hbox {\relax \fontsize  {7}{8}\selectfont  $\leftarrow \joinrel  \rhook $}}{}{}B\discretionary {\unhbox \voidb@x \hbox {\relax \fontsize  {7}{8}\selectfont  $\leftarrow \joinrel  \rhook $}}{}{}D\discretionary {\unhbox \voidb@x \hbox {\relax \fontsize  {7}{8}\selectfont  $\leftarrow \joinrel  \rhook $}}{}{}\_\discretionary {\unhbox \voidb@x \hbox {\relax \fontsize  {7}{8}\selectfont  $\leftarrow \joinrel  \rhook $}}{}{}\discretionary {\unhbox \voidb@x \hbox {\relax \fontsize  {7}{8}\selectfont  $\leftarrow \joinrel  \rhook $}}{}{}F\discretionary {\unhbox \voidb@x \hbox {\relax \fontsize  {7}{8}\selectfont  $\leftarrow \joinrel  \rhook $}}{}{}S\discretionary {\unhbox \voidb@x \hbox {\relax \fontsize  {7}{8}\selectfont  $\leftarrow \joinrel  \rhook $}}{}{}\_\discretionary {\unhbox \voidb@x \hbox {\relax \fontsize  {7}{8}\selectfont  $\leftarrow \joinrel  \rhook $}}{}{}\discretionary {\unhbox \voidb@x \hbox {\relax \fontsize  {7}{8}\selectfont  $\leftarrow \joinrel  \rhook $}}{}{}Interface\discretionary {\unhbox \voidb@x \hbox {\relax \fontsize  {7}{8}\selectfont  $\leftarrow \joinrel  \rhook $}}{}{}Str\discretionary {\unhbox \voidb@x \hbox {\relax \fontsize  {7}{8}\selectfont  $\leftarrow \joinrel  \rhook $}}{}{}Descriptor()}{24}{subsubsection.4.14.2.3}}
\newlabel{group___u_s_b_d___d_e_s_c___private___functions_gac02628ceb6a6a071e192dcb85063c0cc}{{4.14.2.3}{24}{\texorpdfstring {U\+S\+B\+D\+\_\+\+F\+S\+\_\+\+Interface\+Str\+Descriptor()}{USBD\_FS\_InterfaceStrDescriptor()}}{table.4.16}{}}
\@writefile{toc}{\contentsline {subsubsection}{\numberline {4.14.2.4}U\discretionary {\unhbox \voidb@x \hbox {\relax \fontsize  {7}{8}\selectfont  $\leftarrow \joinrel  \rhook $}}{}{}S\discretionary {\unhbox \voidb@x \hbox {\relax \fontsize  {7}{8}\selectfont  $\leftarrow \joinrel  \rhook $}}{}{}B\discretionary {\unhbox \voidb@x \hbox {\relax \fontsize  {7}{8}\selectfont  $\leftarrow \joinrel  \rhook $}}{}{}D\discretionary {\unhbox \voidb@x \hbox {\relax \fontsize  {7}{8}\selectfont  $\leftarrow \joinrel  \rhook $}}{}{}\_\discretionary {\unhbox \voidb@x \hbox {\relax \fontsize  {7}{8}\selectfont  $\leftarrow \joinrel  \rhook $}}{}{}\discretionary {\unhbox \voidb@x \hbox {\relax \fontsize  {7}{8}\selectfont  $\leftarrow \joinrel  \rhook $}}{}{}F\discretionary {\unhbox \voidb@x \hbox {\relax \fontsize  {7}{8}\selectfont  $\leftarrow \joinrel  \rhook $}}{}{}S\discretionary {\unhbox \voidb@x \hbox {\relax \fontsize  {7}{8}\selectfont  $\leftarrow \joinrel  \rhook $}}{}{}\_\discretionary {\unhbox \voidb@x \hbox {\relax \fontsize  {7}{8}\selectfont  $\leftarrow \joinrel  \rhook $}}{}{}\discretionary {\unhbox \voidb@x \hbox {\relax \fontsize  {7}{8}\selectfont  $\leftarrow \joinrel  \rhook $}}{}{}Lang\discretionary {\unhbox \voidb@x \hbox {\relax \fontsize  {7}{8}\selectfont  $\leftarrow \joinrel  \rhook $}}{}{}I\discretionary {\unhbox \voidb@x \hbox {\relax \fontsize  {7}{8}\selectfont  $\leftarrow \joinrel  \rhook $}}{}{}D\discretionary {\unhbox \voidb@x \hbox {\relax \fontsize  {7}{8}\selectfont  $\leftarrow \joinrel  \rhook $}}{}{}Str\discretionary {\unhbox \voidb@x \hbox {\relax \fontsize  {7}{8}\selectfont  $\leftarrow \joinrel  \rhook $}}{}{}Descriptor()}{24}{subsubsection.4.14.2.4}}
\gdef \LT@xviii {\LT@entry 
    {3}{40.3124pt}\LT@entry 
    {3}{87.11641pt}}
\gdef \LT@xix {\LT@entry 
    {3}{37.31558pt}\LT@entry 
    {3}{136.29092pt}}
\gdef \LT@xx {\LT@entry 
    {3}{40.3124pt}\LT@entry 
    {3}{87.11641pt}}
\gdef \LT@xxi {\LT@entry 
    {3}{37.31558pt}\LT@entry 
    {3}{136.29092pt}}
\gdef \LT@xxii {\LT@entry 
    {3}{40.3124pt}\LT@entry 
    {3}{87.11641pt}}
\newlabel{group___u_s_b_d___d_e_s_c___private___functions_ga6427a671827813efe1a46c3dfcb05683}{{4.14.2.4}{25}{\texorpdfstring {U\+S\+B\+D\+\_\+\+F\+S\+\_\+\+Lang\+I\+D\+Str\+Descriptor()}{USBD\_FS\_LangIDStrDescriptor()}}{table.4.18}{}}
\@writefile{toc}{\contentsline {subsubsection}{\numberline {4.14.2.5}U\discretionary {\unhbox \voidb@x \hbox {\relax \fontsize  {7}{8}\selectfont  $\leftarrow \joinrel  \rhook $}}{}{}S\discretionary {\unhbox \voidb@x \hbox {\relax \fontsize  {7}{8}\selectfont  $\leftarrow \joinrel  \rhook $}}{}{}B\discretionary {\unhbox \voidb@x \hbox {\relax \fontsize  {7}{8}\selectfont  $\leftarrow \joinrel  \rhook $}}{}{}D\discretionary {\unhbox \voidb@x \hbox {\relax \fontsize  {7}{8}\selectfont  $\leftarrow \joinrel  \rhook $}}{}{}\_\discretionary {\unhbox \voidb@x \hbox {\relax \fontsize  {7}{8}\selectfont  $\leftarrow \joinrel  \rhook $}}{}{}\discretionary {\unhbox \voidb@x \hbox {\relax \fontsize  {7}{8}\selectfont  $\leftarrow \joinrel  \rhook $}}{}{}F\discretionary {\unhbox \voidb@x \hbox {\relax \fontsize  {7}{8}\selectfont  $\leftarrow \joinrel  \rhook $}}{}{}S\discretionary {\unhbox \voidb@x \hbox {\relax \fontsize  {7}{8}\selectfont  $\leftarrow \joinrel  \rhook $}}{}{}\_\discretionary {\unhbox \voidb@x \hbox {\relax \fontsize  {7}{8}\selectfont  $\leftarrow \joinrel  \rhook $}}{}{}\discretionary {\unhbox \voidb@x \hbox {\relax \fontsize  {7}{8}\selectfont  $\leftarrow \joinrel  \rhook $}}{}{}Manufacturer\discretionary {\unhbox \voidb@x \hbox {\relax \fontsize  {7}{8}\selectfont  $\leftarrow \joinrel  \rhook $}}{}{}Str\discretionary {\unhbox \voidb@x \hbox {\relax \fontsize  {7}{8}\selectfont  $\leftarrow \joinrel  \rhook $}}{}{}Descriptor()}{25}{subsubsection.4.14.2.5}}
\newlabel{group___u_s_b_d___d_e_s_c___private___functions_ga0ec558c0303daabb851d584109a56514}{{4.14.2.5}{25}{\texorpdfstring {U\+S\+B\+D\+\_\+\+F\+S\+\_\+\+Manufacturer\+Str\+Descriptor()}{USBD\_FS\_ManufacturerStrDescriptor()}}{table.4.20}{}}
\@writefile{toc}{\contentsline {subsubsection}{\numberline {4.14.2.6}U\discretionary {\unhbox \voidb@x \hbox {\relax \fontsize  {7}{8}\selectfont  $\leftarrow \joinrel  \rhook $}}{}{}S\discretionary {\unhbox \voidb@x \hbox {\relax \fontsize  {7}{8}\selectfont  $\leftarrow \joinrel  \rhook $}}{}{}B\discretionary {\unhbox \voidb@x \hbox {\relax \fontsize  {7}{8}\selectfont  $\leftarrow \joinrel  \rhook $}}{}{}D\discretionary {\unhbox \voidb@x \hbox {\relax \fontsize  {7}{8}\selectfont  $\leftarrow \joinrel  \rhook $}}{}{}\_\discretionary {\unhbox \voidb@x \hbox {\relax \fontsize  {7}{8}\selectfont  $\leftarrow \joinrel  \rhook $}}{}{}\discretionary {\unhbox \voidb@x \hbox {\relax \fontsize  {7}{8}\selectfont  $\leftarrow \joinrel  \rhook $}}{}{}F\discretionary {\unhbox \voidb@x \hbox {\relax \fontsize  {7}{8}\selectfont  $\leftarrow \joinrel  \rhook $}}{}{}S\discretionary {\unhbox \voidb@x \hbox {\relax \fontsize  {7}{8}\selectfont  $\leftarrow \joinrel  \rhook $}}{}{}\_\discretionary {\unhbox \voidb@x \hbox {\relax \fontsize  {7}{8}\selectfont  $\leftarrow \joinrel  \rhook $}}{}{}\discretionary {\unhbox \voidb@x \hbox {\relax \fontsize  {7}{8}\selectfont  $\leftarrow \joinrel  \rhook $}}{}{}Product\discretionary {\unhbox \voidb@x \hbox {\relax \fontsize  {7}{8}\selectfont  $\leftarrow \joinrel  \rhook $}}{}{}Str\discretionary {\unhbox \voidb@x \hbox {\relax \fontsize  {7}{8}\selectfont  $\leftarrow \joinrel  \rhook $}}{}{}Descriptor()}{25}{subsubsection.4.14.2.6}}
\newlabel{group___u_s_b_d___d_e_s_c___private___functions_gaad2a1d1451821845eda602a82b1cd213}{{4.14.2.6}{25}{\texorpdfstring {U\+S\+B\+D\+\_\+\+F\+S\+\_\+\+Product\+Str\+Descriptor()}{USBD\_FS\_ProductStrDescriptor()}}{table.4.22}{}}
\@writefile{toc}{\contentsline {subsubsection}{\numberline {4.14.2.7}U\discretionary {\unhbox \voidb@x \hbox {\relax \fontsize  {7}{8}\selectfont  $\leftarrow \joinrel  \rhook $}}{}{}S\discretionary {\unhbox \voidb@x \hbox {\relax \fontsize  {7}{8}\selectfont  $\leftarrow \joinrel  \rhook $}}{}{}B\discretionary {\unhbox \voidb@x \hbox {\relax \fontsize  {7}{8}\selectfont  $\leftarrow \joinrel  \rhook $}}{}{}D\discretionary {\unhbox \voidb@x \hbox {\relax \fontsize  {7}{8}\selectfont  $\leftarrow \joinrel  \rhook $}}{}{}\_\discretionary {\unhbox \voidb@x \hbox {\relax \fontsize  {7}{8}\selectfont  $\leftarrow \joinrel  \rhook $}}{}{}\discretionary {\unhbox \voidb@x \hbox {\relax \fontsize  {7}{8}\selectfont  $\leftarrow \joinrel  \rhook $}}{}{}F\discretionary {\unhbox \voidb@x \hbox {\relax \fontsize  {7}{8}\selectfont  $\leftarrow \joinrel  \rhook $}}{}{}S\discretionary {\unhbox \voidb@x \hbox {\relax \fontsize  {7}{8}\selectfont  $\leftarrow \joinrel  \rhook $}}{}{}\_\discretionary {\unhbox \voidb@x \hbox {\relax \fontsize  {7}{8}\selectfont  $\leftarrow \joinrel  \rhook $}}{}{}\discretionary {\unhbox \voidb@x \hbox {\relax \fontsize  {7}{8}\selectfont  $\leftarrow \joinrel  \rhook $}}{}{}Serial\discretionary {\unhbox \voidb@x \hbox {\relax \fontsize  {7}{8}\selectfont  $\leftarrow \joinrel  \rhook $}}{}{}Str\discretionary {\unhbox \voidb@x \hbox {\relax \fontsize  {7}{8}\selectfont  $\leftarrow \joinrel  \rhook $}}{}{}Descriptor()}{25}{subsubsection.4.14.2.7}}
\gdef \LT@xxiii {\LT@entry 
    {3}{37.31558pt}\LT@entry 
    {3}{136.29092pt}}
\gdef \LT@xxiv {\LT@entry 
    {3}{40.3124pt}\LT@entry 
    {3}{87.11641pt}}
\@setckpt{group___u_s_b_d___d_e_s_c___private___functions}{
\setcounter{page}{27}
\setcounter{equation}{0}
\setcounter{enumi}{0}
\setcounter{enumii}{0}
\setcounter{enumiii}{0}
\setcounter{enumiv}{0}
\setcounter{footnote}{0}
\setcounter{mpfootnote}{0}
\setcounter{part}{0}
\setcounter{chapter}{4}
\setcounter{section}{14}
\setcounter{subsection}{2}
\setcounter{subsubsection}{7}
\setcounter{paragraph}{0}
\setcounter{subparagraph}{0}
\setcounter{figure}{0}
\setcounter{table}{24}
\setcounter{float@type}{4}
\setcounter{LT@tables}{24}
\setcounter{LT@chunks}{3}
\setcounter{NAT@ctr}{0}
\setcounter{lofdepth}{1}
\setcounter{lotdepth}{1}
\setcounter{Item}{0}
\setcounter{Hfootnote}{0}
\setcounter{bookmark@seq@number}{49}
\setcounter{ContinuedFloat}{0}
\setcounter{section@level}{3}
}
