\relax 
\providecommand\hyper@newdestlabel[2]{}
\gdef \LT@xxxiv {\LT@entry 
    {3}{24.80576pt}\LT@entry 
    {3}{121.18044pt}}
\@writefile{toc}{\contentsline {section}{\numberline {4.19}Random}{33}{section.4.19}}
\newlabel{group___random}{{4.19}{33}{Random}{section.4.19}{}}
\newlabel{group___random_ga460c4ce66db82fe318db2b3131604057}{{4.19}{33}{Functions}{section*.16}{}}
\newlabel{group___random_gaac2dceb5bba58c53cf7a0be6934c4df6}{{4.19}{33}{Variables}{section*.17}{}}
\newlabel{group___random_ga1e43bf7d608e87228b625cca2c04d641}{{4.19}{33}{Variables}{section*.17}{}}
\@writefile{toc}{\contentsline {subsection}{\numberline {4.19.1}Detailed Description}{33}{subsection.4.19.1}}
\@writefile{toc}{\contentsline {subsection}{\numberline {4.19.2}Function Documentation}{33}{subsection.4.19.2}}
\newlabel{group___random_gadef70ad75365c6c21f82b763e2f04012}{{4.19.2}{33}{Function Documentation}{subsection.4.19.2}{}}
\@writefile{toc}{\contentsline {subsubsection}{\numberline {4.19.2.1}api\discretionary {\unhbox \voidb@x \hbox {\relax \fontsize  {7}{8}\selectfont  $\leftarrow \joinrel  \rhook $}}{}{}Dnfcc\discretionary {\unhbox \voidb@x \hbox {\relax \fontsize  {7}{8}\selectfont  $\leftarrow \joinrel  \rhook $}}{}{}Fill\discretionary {\unhbox \voidb@x \hbox {\relax \fontsize  {7}{8}\selectfont  $\leftarrow \joinrel  \rhook $}}{}{}Random\discretionary {\unhbox \voidb@x \hbox {\relax \fontsize  {7}{8}\selectfont  $\leftarrow \joinrel  \rhook $}}{}{}Bytes()}{33}{subsubsection.4.19.2.1}}
\newlabel{group___random_ga3c06b6ffef85ca46a3c96a9720b5b918}{{4.19.2.1}{33}{\texorpdfstring {api\+Dnfcc\+Fill\+Random\+Bytes()}{apiDnfccFillRandomBytes()}}{table.4.34}{}}
\@writefile{toc}{\contentsline {subsubsection}{\numberline {4.19.2.2}api\discretionary {\unhbox \voidb@x \hbox {\relax \fontsize  {7}{8}\selectfont  $\leftarrow \joinrel  \rhook $}}{}{}Dnfcc\discretionary {\unhbox \voidb@x \hbox {\relax \fontsize  {7}{8}\selectfont  $\leftarrow \joinrel  \rhook $}}{}{}Get\discretionary {\unhbox \voidb@x \hbox {\relax \fontsize  {7}{8}\selectfont  $\leftarrow \joinrel  \rhook $}}{}{}Random\discretionary {\unhbox \voidb@x \hbox {\relax \fontsize  {7}{8}\selectfont  $\leftarrow \joinrel  \rhook $}}{}{}Uint16()}{33}{subsubsection.4.19.2.2}}
\newlabel{group___random_ga54322aa52d964b412400095fad381773}{{4.19.2.2}{33}{\texorpdfstring {api\+Dnfcc\+Get\+Random\+Uint16()}{apiDnfccGetRandomUint16()}}{subsubsection.4.19.2.2}{}}
\@writefile{toc}{\contentsline {subsubsection}{\numberline {4.19.2.3}api\discretionary {\unhbox \voidb@x \hbox {\relax \fontsize  {7}{8}\selectfont  $\leftarrow \joinrel  \rhook $}}{}{}Dnfcc\discretionary {\unhbox \voidb@x \hbox {\relax \fontsize  {7}{8}\selectfont  $\leftarrow \joinrel  \rhook $}}{}{}Get\discretionary {\unhbox \voidb@x \hbox {\relax \fontsize  {7}{8}\selectfont  $\leftarrow \joinrel  \rhook $}}{}{}Random\discretionary {\unhbox \voidb@x \hbox {\relax \fontsize  {7}{8}\selectfont  $\leftarrow \joinrel  \rhook $}}{}{}Uint32()}{34}{subsubsection.4.19.2.3}}
\newlabel{group___random_ga0632e8c37519367207a814dcc8887183}{{4.19.2.3}{34}{\texorpdfstring {api\+Dnfcc\+Get\+Random\+Uint32()}{apiDnfccGetRandomUint32()}}{subsubsection.4.19.2.3}{}}
\@writefile{toc}{\contentsline {subsubsection}{\numberline {4.19.2.4}api\discretionary {\unhbox \voidb@x \hbox {\relax \fontsize  {7}{8}\selectfont  $\leftarrow \joinrel  \rhook $}}{}{}Dnfcc\discretionary {\unhbox \voidb@x \hbox {\relax \fontsize  {7}{8}\selectfont  $\leftarrow \joinrel  \rhook $}}{}{}Get\discretionary {\unhbox \voidb@x \hbox {\relax \fontsize  {7}{8}\selectfont  $\leftarrow \joinrel  \rhook $}}{}{}Random\discretionary {\unhbox \voidb@x \hbox {\relax \fontsize  {7}{8}\selectfont  $\leftarrow \joinrel  \rhook $}}{}{}Uint8()}{34}{subsubsection.4.19.2.4}}
\@setckpt{group___random}{
\setcounter{page}{35}
\setcounter{equation}{0}
\setcounter{enumi}{0}
\setcounter{enumii}{0}
\setcounter{enumiii}{0}
\setcounter{enumiv}{0}
\setcounter{footnote}{0}
\setcounter{mpfootnote}{0}
\setcounter{part}{0}
\setcounter{chapter}{4}
\setcounter{section}{19}
\setcounter{subsection}{2}
\setcounter{subsubsection}{4}
\setcounter{paragraph}{0}
\setcounter{subparagraph}{0}
\setcounter{figure}{0}
\setcounter{table}{34}
\setcounter{float@type}{4}
\setcounter{LT@tables}{34}
\setcounter{LT@chunks}{3}
\setcounter{NAT@ctr}{0}
\setcounter{lofdepth}{1}
\setcounter{lotdepth}{1}
\setcounter{Item}{0}
\setcounter{Hfootnote}{0}
\setcounter{bookmark@seq@number}{78}
\setcounter{ContinuedFloat}{0}
\setcounter{section@level}{3}
}
