\relax 
\providecommand\hyper@newdestlabel[2]{}
\@writefile{toc}{\contentsline {section}{\numberline {4.20}Serial\discretionary {\unhbox \voidb@x \hbox {\relax \fontsize  {7}{8}\selectfont  $\leftarrow \joinrel  \rhook $}}{}{}Communicator}{35}{section.4.20}}
\newlabel{group___serial_communicator}{{4.20}{35}{Serial\+Communicator}{section.4.20}{}}
\newlabel{group___serial_communicator_ga80319ba651e3ba99d611cbfc1b98c96d}{{4.20}{35}{Typedefs}{section*.19}{}}
\newlabel{group___serial_communicator_ga01662b1f16993b8f8ba560f9f81d1207}{{4.20}{35}{Typedefs}{section*.19}{}}
\newlabel{group___serial_communicator_ga51daffc47c3a87be47ed73473c48413e}{{4.20}{35}{Variables}{section*.22}{}}
\gdef \LT@xxxv {\LT@entry 
    {3}{198.83589pt}\LT@entry 
    {3}{256.40822pt}}
\@writefile{toc}{\contentsline {subsection}{\numberline {4.20.1}Detailed Description}{36}{subsection.4.20.1}}
\@writefile{toc}{\contentsline {subsection}{\numberline {4.20.2}Typedef Documentation}{36}{subsection.4.20.2}}
\newlabel{group___serial_communicator_gaa4eed0d8d3a889b2edcb3fe8e025d167}{{4.20.2}{36}{Typedef Documentation}{subsection.4.20.2}{}}
\@writefile{toc}{\contentsline {subsubsection}{\numberline {4.20.2.1}Serial\discretionary {\unhbox \voidb@x \hbox {\relax \fontsize  {7}{8}\selectfont  $\leftarrow \joinrel  \rhook $}}{}{}Controller\discretionary {\unhbox \voidb@x \hbox {\relax \fontsize  {7}{8}\selectfont  $\leftarrow \joinrel  \rhook $}}{}{}Callback}{36}{subsubsection.4.20.2.1}}
\newlabel{group___serial_communicator_ga9d3cf13f4d48d5487f8e47d4c7aa98e4}{{4.20.2.1}{36}{\texorpdfstring {Serial\+Controller\+Callback}{SerialControllerCallback}}{subsubsection.4.20.2.1}{}}
\@writefile{toc}{\contentsline {subsubsection}{\numberline {4.20.2.2}Serial\discretionary {\unhbox \voidb@x \hbox {\relax \fontsize  {7}{8}\selectfont  $\leftarrow \joinrel  \rhook $}}{}{}Controller\discretionary {\unhbox \voidb@x \hbox {\relax \fontsize  {7}{8}\selectfont  $\leftarrow \joinrel  \rhook $}}{}{}Flow\discretionary {\unhbox \voidb@x \hbox {\relax \fontsize  {7}{8}\selectfont  $\leftarrow \joinrel  \rhook $}}{}{}\_\discretionary {\unhbox \voidb@x \hbox {\relax \fontsize  {7}{8}\selectfont  $\leftarrow \joinrel  \rhook $}}{}{}type}{36}{subsubsection.4.20.2.2}}
\@writefile{toc}{\contentsline {subsection}{\numberline {4.20.3}Enumeration Type Documentation}{36}{subsection.4.20.3}}
\newlabel{group___serial_communicator_ga2f4ab7bf743142dae2e459aa18f9f1d4}{{4.20.3}{36}{Enumeration Type Documentation}{subsection.4.20.3}{}}
\@writefile{toc}{\contentsline {subsubsection}{\numberline {4.20.3.1}action}{36}{subsubsection.4.20.3.1}}
\newlabel{group___serial_communicator_gga2f4ab7bf743142dae2e459aa18f9f1d4ad9b261ab2f24847e55b5b7ff3e0835f0}{{4.35}{36}{\texorpdfstring {action}{action}}{table.4.35}{}}
\newlabel{group___serial_communicator_gga2f4ab7bf743142dae2e459aa18f9f1d4a6511943787a19a4aa37cea175b4eadd8}{{4.35}{36}{\texorpdfstring {action}{action}}{table.4.35}{}}
\newlabel{group___serial_communicator_gga2f4ab7bf743142dae2e459aa18f9f1d4af72fc490032738b2dd3a417fc4189f1e}{{4.35}{36}{\texorpdfstring {action}{action}}{table.4.35}{}}
\newlabel{group___serial_communicator_gga2f4ab7bf743142dae2e459aa18f9f1d4adc679c59bf6397cfeb0723529b11a8d2}{{4.35}{36}{\texorpdfstring {action}{action}}{table.4.35}{}}
\newlabel{group___serial_communicator_gga2f4ab7bf743142dae2e459aa18f9f1d4a9f6a0d3ad3e9378cf73c4ad3294f29af}{{4.35}{36}{\texorpdfstring {action}{action}}{table.4.35}{}}
\newlabel{group___serial_communicator_gga2f4ab7bf743142dae2e459aa18f9f1d4aa6df4fdb31a9bf2a2e30e692a9240fc8}{{4.35}{36}{\texorpdfstring {action}{action}}{table.4.35}{}}
\newlabel{group___serial_communicator_gga2f4ab7bf743142dae2e459aa18f9f1d4a5368f6d7ace808dbbbf2286c0920d7ed}{{4.35}{36}{\texorpdfstring {action}{action}}{table.4.35}{}}
\newlabel{group___serial_communicator_gga2f4ab7bf743142dae2e459aa18f9f1d4a45d3b1553e711606cc7641fc6d10148e}{{4.35}{36}{\texorpdfstring {action}{action}}{table.4.35}{}}
\newlabel{group___serial_communicator_gga2f4ab7bf743142dae2e459aa18f9f1d4aa920aa082b9b6fbbe90babde249ebd0b}{{4.35}{36}{\texorpdfstring {action}{action}}{table.4.35}{}}
\@writefile{toc}{\contentsline {subsection}{\numberline {4.20.4}Function Documentation}{36}{subsection.4.20.4}}
\newlabel{group___serial_communicator_ga425a7a81ace2a6b86f8249f98ad72f58}{{4.20.4}{36}{Function Documentation}{subsection.4.20.4}{}}
\gdef \LT@xxxvi {\LT@entry 
    {3}{94.43753pt}\LT@entry 
    {3}{167.95287pt}}
\gdef \LT@xxxvii {\LT@entry 
    {3}{94.43753pt}\LT@entry 
    {3}{167.95287pt}}
\@writefile{toc}{\contentsline {subsubsection}{\numberline {4.20.4.1}api\discretionary {\unhbox \voidb@x \hbox {\relax \fontsize  {7}{8}\selectfont  $\leftarrow \joinrel  \rhook $}}{}{}Dnfcc\discretionary {\unhbox \voidb@x \hbox {\relax \fontsize  {7}{8}\selectfont  $\leftarrow \joinrel  \rhook $}}{}{}Initialize\discretionary {\unhbox \voidb@x \hbox {\relax \fontsize  {7}{8}\selectfont  $\leftarrow \joinrel  \rhook $}}{}{}Serial\discretionary {\unhbox \voidb@x \hbox {\relax \fontsize  {7}{8}\selectfont  $\leftarrow \joinrel  \rhook $}}{}{}Engine\discretionary {\unhbox \voidb@x \hbox {\relax \fontsize  {7}{8}\selectfont  $\leftarrow \joinrel  \rhook $}}{}{}Struct()}{37}{subsubsection.4.20.4.1}}
\newlabel{group___serial_communicator_ga487df97f91fd7237a9fa860bf6d202cb}{{4.20.4.1}{37}{\texorpdfstring {api\+Dnfcc\+Initialize\+Serial\+Engine\+Struct()}{apiDnfccInitializeSerialEngineStruct()}}{subsubsection.4.20.4.1}{}}
\@writefile{toc}{\contentsline {subsubsection}{\numberline {4.20.4.2}api\discretionary {\unhbox \voidb@x \hbox {\relax \fontsize  {7}{8}\selectfont  $\leftarrow \joinrel  \rhook $}}{}{}Dnfcc\discretionary {\unhbox \voidb@x \hbox {\relax \fontsize  {7}{8}\selectfont  $\leftarrow \joinrel  \rhook $}}{}{}Serial\discretionary {\unhbox \voidb@x \hbox {\relax \fontsize  {7}{8}\selectfont  $\leftarrow \joinrel  \rhook $}}{}{}Communication\discretionary {\unhbox \voidb@x \hbox {\relax \fontsize  {7}{8}\selectfont  $\leftarrow \joinrel  \rhook $}}{}{}Advance()}{37}{subsubsection.4.20.4.2}}
\newlabel{group___serial_communicator_ga495fce2a86356f199681cce52e78cf7e}{{4.20.4.2}{37}{\texorpdfstring {api\+Dnfcc\+Serial\+Communication\+Advance()}{apiDnfccSerialCommunicationAdvance()}}{table.4.36}{}}
\@writefile{toc}{\contentsline {subsubsection}{\numberline {4.20.4.3}api\discretionary {\unhbox \voidb@x \hbox {\relax \fontsize  {7}{8}\selectfont  $\leftarrow \joinrel  \rhook $}}{}{}Dnfcc\discretionary {\unhbox \voidb@x \hbox {\relax \fontsize  {7}{8}\selectfont  $\leftarrow \joinrel  \rhook $}}{}{}Serial\discretionary {\unhbox \voidb@x \hbox {\relax \fontsize  {7}{8}\selectfont  $\leftarrow \joinrel  \rhook $}}{}{}Communication\discretionary {\unhbox \voidb@x \hbox {\relax \fontsize  {7}{8}\selectfont  $\leftarrow \joinrel  \rhook $}}{}{}Initialize()}{37}{subsubsection.4.20.4.3}}
\newlabel{group___serial_communicator_ga6d3be14ce291aee48a45ea5992923cbd}{{4.20.4.3}{37}{\texorpdfstring {api\+Dnfcc\+Serial\+Communication\+Initialize()}{apiDnfccSerialCommunicationInitialize()}}{table.4.37}{}}
\@writefile{toc}{\contentsline {subsubsection}{\numberline {4.20.4.4}api\discretionary {\unhbox \voidb@x \hbox {\relax \fontsize  {7}{8}\selectfont  $\leftarrow \joinrel  \rhook $}}{}{}Dnfcc\discretionary {\unhbox \voidb@x \hbox {\relax \fontsize  {7}{8}\selectfont  $\leftarrow \joinrel  \rhook $}}{}{}Serial\discretionary {\unhbox \voidb@x \hbox {\relax \fontsize  {7}{8}\selectfont  $\leftarrow \joinrel  \rhook $}}{}{}Communication\discretionary {\unhbox \voidb@x \hbox {\relax \fontsize  {7}{8}\selectfont  $\leftarrow \joinrel  \rhook $}}{}{}Verify\discretionary {\unhbox \voidb@x \hbox {\relax \fontsize  {7}{8}\selectfont  $\leftarrow \joinrel  \rhook $}}{}{}String\discretionary {\unhbox \voidb@x \hbox {\relax \fontsize  {7}{8}\selectfont  $\leftarrow \joinrel  \rhook $}}{}{}Present\discretionary {\unhbox \voidb@x \hbox {\relax \fontsize  {7}{8}\selectfont  $\leftarrow \joinrel  \rhook $}}{}{}In\discretionary {\unhbox \voidb@x \hbox {\relax \fontsize  {7}{8}\selectfont  $\leftarrow \joinrel  \rhook $}}{}{}Receive\discretionary {\unhbox \voidb@x \hbox {\relax \fontsize  {7}{8}\selectfont  $\leftarrow \joinrel  \rhook $}}{}{}Buffer()}{37}{subsubsection.4.20.4.4}}
\gdef \LT@xxxviii {\LT@entry 
    {3}{94.43753pt}\LT@entry 
    {3}{167.95287pt}}
\gdef \LT@xxxix {\LT@entry 
    {3}{95.97636pt}\LT@entry 
    {3}{214.94052pt}}
\gdef \LT@xl {\LT@entry 
    {3}{28.66653pt}\LT@entry 
    {3}{125.80621pt}}
\newlabel{group___serial_communicator_ga2ff25a124761d35fd63bab7379068fb5}{{4.20.4.4}{38}{\texorpdfstring {api\+Dnfcc\+Serial\+Communication\+Verify\+String\+Present\+In\+Receive\+Buffer()}{apiDnfccSerialCommunicationVerifyStringPresentInReceiveBuffer()}}{table.4.38}{}}
\@writefile{toc}{\contentsline {subsubsection}{\numberline {4.20.4.5}api\discretionary {\unhbox \voidb@x \hbox {\relax \fontsize  {7}{8}\selectfont  $\leftarrow \joinrel  \rhook $}}{}{}Dnfcc\discretionary {\unhbox \voidb@x \hbox {\relax \fontsize  {7}{8}\selectfont  $\leftarrow \joinrel  \rhook $}}{}{}Serial\discretionary {\unhbox \voidb@x \hbox {\relax \fontsize  {7}{8}\selectfont  $\leftarrow \joinrel  \rhook $}}{}{}Engine\discretionary {\unhbox \voidb@x \hbox {\relax \fontsize  {7}{8}\selectfont  $\leftarrow \joinrel  \rhook $}}{}{}Start\discretionary {\unhbox \voidb@x \hbox {\relax \fontsize  {7}{8}\selectfont  $\leftarrow \joinrel  \rhook $}}{}{}Listening()}{38}{subsubsection.4.20.4.5}}
\newlabel{group___serial_communicator_gab795ad0fcc0bd277821ec60f7a71afee}{{4.20.4.5}{38}{\texorpdfstring {api\+Dnfcc\+Serial\+Engine\+Start\+Listening()}{apiDnfccSerialEngineStartListening()}}{table.4.39}{}}
\@writefile{toc}{\contentsline {subsubsection}{\numberline {4.20.4.6}api\discretionary {\unhbox \voidb@x \hbox {\relax \fontsize  {7}{8}\selectfont  $\leftarrow \joinrel  \rhook $}}{}{}Dnfcc\discretionary {\unhbox \voidb@x \hbox {\relax \fontsize  {7}{8}\selectfont  $\leftarrow \joinrel  \rhook $}}{}{}Serial\discretionary {\unhbox \voidb@x \hbox {\relax \fontsize  {7}{8}\selectfont  $\leftarrow \joinrel  \rhook $}}{}{}Engine\discretionary {\unhbox \voidb@x \hbox {\relax \fontsize  {7}{8}\selectfont  $\leftarrow \joinrel  \rhook $}}{}{}Transmit()}{38}{subsubsection.4.20.4.6}}
\newlabel{group___serial_communicator_ga3faed0242c4953c27c34673ae87461fb}{{4.20.4.6}{38}{\texorpdfstring {api\+Dnfcc\+Serial\+Engine\+Transmit()}{apiDnfccSerialEngineTransmit()}}{table.4.40}{}}
\@writefile{toc}{\contentsline {subsubsection}{\numberline {4.20.4.7}api\discretionary {\unhbox \voidb@x \hbox {\relax \fontsize  {7}{8}\selectfont  $\leftarrow \joinrel  \rhook $}}{}{}Dnfcc\discretionary {\unhbox \voidb@x \hbox {\relax \fontsize  {7}{8}\selectfont  $\leftarrow \joinrel  \rhook $}}{}{}Serial\discretionary {\unhbox \voidb@x \hbox {\relax \fontsize  {7}{8}\selectfont  $\leftarrow \joinrel  \rhook $}}{}{}Engine\discretionary {\unhbox \voidb@x \hbox {\relax \fontsize  {7}{8}\selectfont  $\leftarrow \joinrel  \rhook $}}{}{}Transmit\discretionary {\unhbox \voidb@x \hbox {\relax \fontsize  {7}{8}\selectfont  $\leftarrow \joinrel  \rhook $}}{}{}Binary()}{38}{subsubsection.4.20.4.7}}
\gdef \LT@xli {\LT@entry 
    {3}{28.66653pt}\LT@entry 
    {3}{125.80621pt}}
\gdef \LT@xlii {\LT@entry 
    {3}{34.93945pt}\LT@entry 
    {3}{130.22496pt}}
\gdef \LT@xliii {\LT@entry 
    {3}{40.3124pt}\LT@entry 
    {3}{105.20567pt}}
\newlabel{group___serial_communicator_ga90f2d85ecf303b7104dbac4510664b83}{{4.20.4.7}{39}{\texorpdfstring {api\+Dnfcc\+Serial\+Engine\+Transmit\+Binary()}{apiDnfccSerialEngineTransmitBinary()}}{table.4.41}{}}
\@writefile{toc}{\contentsline {subsubsection}{\numberline {4.20.4.8}api\discretionary {\unhbox \voidb@x \hbox {\relax \fontsize  {7}{8}\selectfont  $\leftarrow \joinrel  \rhook $}}{}{}Dnfcc\discretionary {\unhbox \voidb@x \hbox {\relax \fontsize  {7}{8}\selectfont  $\leftarrow \joinrel  \rhook $}}{}{}Serial\discretionary {\unhbox \voidb@x \hbox {\relax \fontsize  {7}{8}\selectfont  $\leftarrow \joinrel  \rhook $}}{}{}Engine\discretionary {\unhbox \voidb@x \hbox {\relax \fontsize  {7}{8}\selectfont  $\leftarrow \joinrel  \rhook $}}{}{}Verify\discretionary {\unhbox \voidb@x \hbox {\relax \fontsize  {7}{8}\selectfont  $\leftarrow \joinrel  \rhook $}}{}{}String\discretionary {\unhbox \voidb@x \hbox {\relax \fontsize  {7}{8}\selectfont  $\leftarrow \joinrel  \rhook $}}{}{}Present()}{39}{subsubsection.4.20.4.8}}
\newlabel{group___serial_communicator_gaa1ad97088526b5106c7df546eaa3b236}{{4.20.4.8}{39}{\texorpdfstring {api\+Dnfcc\+Serial\+Engine\+Verify\+String\+Present()}{apiDnfccSerialEngineVerifyStringPresent()}}{table.4.42}{}}
\@writefile{toc}{\contentsline {subsubsection}{\numberline {4.20.4.9}int\discretionary {\unhbox \voidb@x \hbox {\relax \fontsize  {7}{8}\selectfont  $\leftarrow \joinrel  \rhook $}}{}{}Dnfcc\discretionary {\unhbox \voidb@x \hbox {\relax \fontsize  {7}{8}\selectfont  $\leftarrow \joinrel  \rhook $}}{}{}Serial\discretionary {\unhbox \voidb@x \hbox {\relax \fontsize  {7}{8}\selectfont  $\leftarrow \joinrel  \rhook $}}{}{}Engine\discretionary {\unhbox \voidb@x \hbox {\relax \fontsize  {7}{8}\selectfont  $\leftarrow \joinrel  \rhook $}}{}{}Handle\discretionary {\unhbox \voidb@x \hbox {\relax \fontsize  {7}{8}\selectfont  $\leftarrow \joinrel  \rhook $}}{}{}Interrupt()}{39}{subsubsection.4.20.4.9}}
\@setckpt{group___serial_communicator}{
\setcounter{page}{40}
\setcounter{equation}{0}
\setcounter{enumi}{0}
\setcounter{enumii}{0}
\setcounter{enumiii}{0}
\setcounter{enumiv}{0}
\setcounter{footnote}{0}
\setcounter{mpfootnote}{0}
\setcounter{part}{0}
\setcounter{chapter}{4}
\setcounter{section}{20}
\setcounter{subsection}{4}
\setcounter{subsubsection}{9}
\setcounter{paragraph}{0}
\setcounter{subparagraph}{0}
\setcounter{figure}{0}
\setcounter{table}{43}
\setcounter{float@type}{4}
\setcounter{LT@tables}{43}
\setcounter{LT@chunks}{3}
\setcounter{NAT@ctr}{0}
\setcounter{lofdepth}{1}
\setcounter{lotdepth}{1}
\setcounter{Item}{0}
\setcounter{Hfootnote}{0}
\setcounter{bookmark@seq@number}{95}
\setcounter{ContinuedFloat}{0}
\setcounter{section@level}{3}
}
