\relax 
\providecommand\hyper@newdestlabel[2]{}
\@writefile{toc}{\contentsline {section}{\numberline {4.24}P\discretionary {\unhbox \voidb@x \hbox {\relax \fontsize  {7}{8}\selectfont  $\leftarrow \joinrel  \rhook $}}{}{}I\discretionary {\unhbox \voidb@x \hbox {\relax \fontsize  {7}{8}\selectfont  $\leftarrow \joinrel  \rhook $}}{}{}CC}{48}{section.4.24}}
\newlabel{group___p_i_c_c}{{4.24}{48}{P\+I\+CC}{section.4.24}{}}
\newlabel{group___p_i_c_c_ga1b794fbda72dc57fcda9d08ab513e306}{{4.24}{48}{Functions}{section*.29}{}}
\newlabel{group___p_i_c_c_ga27e85e94378e53ec04e3e22faf4c5d28}{{4.24}{48}{Functions}{section*.29}{}}
\newlabel{group___p_i_c_c_ga9a23deddbb88ac535fed5e837a2d1b88}{{4.24}{48}{Functions}{section*.29}{}}
\newlabel{group___p_i_c_c_gad72bc2605e2a93ed031c07fbcf8489e1}{{4.24}{48}{Functions}{section*.29}{}}
\newlabel{group___p_i_c_c_gada14c304233c8576e6f5736168f3c3ac}{{4.24}{48}{Functions}{section*.29}{}}
\@writefile{toc}{\contentsline {subsection}{\numberline {4.24.1}Detailed Description}{48}{subsection.4.24.1}}
\@writefile{toc}{\contentsline {subsection}{\numberline {4.24.2}Function Documentation}{48}{subsection.4.24.2}}
\newlabel{group___p_i_c_c_ga479e9d514d040b90410c692740f8e00a}{{4.24.2}{48}{Function Documentation}{subsection.4.24.2}{}}
\@writefile{toc}{\contentsline {subsubsection}{\numberline {4.24.2.1}Cns\discretionary {\unhbox \voidb@x \hbox {\relax \fontsize  {7}{8}\selectfont  $\leftarrow \joinrel  \rhook $}}{}{}Card\discretionary {\unhbox \voidb@x \hbox {\relax \fontsize  {7}{8}\selectfont  $\leftarrow \joinrel  \rhook $}}{}{}Interface\discretionary {\unhbox \voidb@x \hbox {\relax \fontsize  {7}{8}\selectfont  $\leftarrow \joinrel  \rhook $}}{}{}Internal\discretionary {\unhbox \voidb@x \hbox {\relax \fontsize  {7}{8}\selectfont  $\leftarrow \joinrel  \rhook $}}{}{}\_\discretionary {\unhbox \voidb@x \hbox {\relax \fontsize  {7}{8}\selectfont  $\leftarrow \joinrel  \rhook $}}{}{}\discretionary {\unhbox \voidb@x \hbox {\relax \fontsize  {7}{8}\selectfont  $\leftarrow \joinrel  \rhook $}}{}{}Sw\discretionary {\unhbox \voidb@x \hbox {\relax \fontsize  {7}{8}\selectfont  $\leftarrow \joinrel  \rhook $}}{}{}\_\discretionary {\unhbox \voidb@x \hbox {\relax \fontsize  {7}{8}\selectfont  $\leftarrow \joinrel  \rhook $}}{}{}\discretionary {\unhbox \voidb@x \hbox {\relax \fontsize  {7}{8}\selectfont  $\leftarrow \joinrel  \rhook $}}{}{}Commit\discretionary {\unhbox \voidb@x \hbox {\relax \fontsize  {7}{8}\selectfont  $\leftarrow \joinrel  \rhook $}}{}{}Transaction()}{48}{subsubsection.4.24.2.1}}
\gdef \LT@liii {\LT@entry 
    {3}{67.3661pt}\LT@entry 
    {3}{52.4221pt}}
\gdef \LT@liv {\LT@entry 
    {3}{70.81296pt}\LT@entry 
    {3}{111.84775pt}}
\gdef \LT@lv {\LT@entry 
    {3}{70.81296pt}\LT@entry 
    {3}{109.35475pt}}
\newlabel{group___p_i_c_c_gab643e2806e3f67a6a73b1e2e94722959}{{4.24.2.1}{49}{\texorpdfstring {Cns\+Card\+Interface\+Internal\+\_\+\+Sw\+\_\+\+Commit\+Transaction()}{CnsCardInterfaceInternal\_Sw\_CommitTransaction()}}{table.4.53}{}}
\@writefile{toc}{\contentsline {subsubsection}{\numberline {4.24.2.2}Cns\discretionary {\unhbox \voidb@x \hbox {\relax \fontsize  {7}{8}\selectfont  $\leftarrow \joinrel  \rhook $}}{}{}Card\discretionary {\unhbox \voidb@x \hbox {\relax \fontsize  {7}{8}\selectfont  $\leftarrow \joinrel  \rhook $}}{}{}Interface\discretionary {\unhbox \voidb@x \hbox {\relax \fontsize  {7}{8}\selectfont  $\leftarrow \joinrel  \rhook $}}{}{}Internal\discretionary {\unhbox \voidb@x \hbox {\relax \fontsize  {7}{8}\selectfont  $\leftarrow \joinrel  \rhook $}}{}{}\_\discretionary {\unhbox \voidb@x \hbox {\relax \fontsize  {7}{8}\selectfont  $\leftarrow \joinrel  \rhook $}}{}{}\discretionary {\unhbox \voidb@x \hbox {\relax \fontsize  {7}{8}\selectfont  $\leftarrow \joinrel  \rhook $}}{}{}Sw\discretionary {\unhbox \voidb@x \hbox {\relax \fontsize  {7}{8}\selectfont  $\leftarrow \joinrel  \rhook $}}{}{}\_\discretionary {\unhbox \voidb@x \hbox {\relax \fontsize  {7}{8}\selectfont  $\leftarrow \joinrel  \rhook $}}{}{}\discretionary {\unhbox \voidb@x \hbox {\relax \fontsize  {7}{8}\selectfont  $\leftarrow \joinrel  \rhook $}}{}{}Credit()}{49}{subsubsection.4.24.2.2}}
\newlabel{group___p_i_c_c_ga03cdf3ab489cc39aeabdd789e24f9071}{{4.24.2.2}{49}{\texorpdfstring {Cns\+Card\+Interface\+Internal\+\_\+\+Sw\+\_\+\+Credit()}{CnsCardInterfaceInternal\_Sw\_Credit()}}{table.4.54}{}}
\@writefile{toc}{\contentsline {subsubsection}{\numberline {4.24.2.3}Cns\discretionary {\unhbox \voidb@x \hbox {\relax \fontsize  {7}{8}\selectfont  $\leftarrow \joinrel  \rhook $}}{}{}Card\discretionary {\unhbox \voidb@x \hbox {\relax \fontsize  {7}{8}\selectfont  $\leftarrow \joinrel  \rhook $}}{}{}Interface\discretionary {\unhbox \voidb@x \hbox {\relax \fontsize  {7}{8}\selectfont  $\leftarrow \joinrel  \rhook $}}{}{}Internal\discretionary {\unhbox \voidb@x \hbox {\relax \fontsize  {7}{8}\selectfont  $\leftarrow \joinrel  \rhook $}}{}{}\_\discretionary {\unhbox \voidb@x \hbox {\relax \fontsize  {7}{8}\selectfont  $\leftarrow \joinrel  \rhook $}}{}{}\discretionary {\unhbox \voidb@x \hbox {\relax \fontsize  {7}{8}\selectfont  $\leftarrow \joinrel  \rhook $}}{}{}Sw\discretionary {\unhbox \voidb@x \hbox {\relax \fontsize  {7}{8}\selectfont  $\leftarrow \joinrel  \rhook $}}{}{}\_\discretionary {\unhbox \voidb@x \hbox {\relax \fontsize  {7}{8}\selectfont  $\leftarrow \joinrel  \rhook $}}{}{}\discretionary {\unhbox \voidb@x \hbox {\relax \fontsize  {7}{8}\selectfont  $\leftarrow \joinrel  \rhook $}}{}{}Debit()}{49}{subsubsection.4.24.2.3}}
\newlabel{group___p_i_c_c_ga87f8e14d4f33d884ddd5dff72043560b}{{4.24.2.3}{49}{\texorpdfstring {Cns\+Card\+Interface\+Internal\+\_\+\+Sw\+\_\+\+Debit()}{CnsCardInterfaceInternal\_Sw\_Debit()}}{table.4.55}{}}
\@writefile{toc}{\contentsline {subsubsection}{\numberline {4.24.2.4}Cns\discretionary {\unhbox \voidb@x \hbox {\relax \fontsize  {7}{8}\selectfont  $\leftarrow \joinrel  \rhook $}}{}{}Card\discretionary {\unhbox \voidb@x \hbox {\relax \fontsize  {7}{8}\selectfont  $\leftarrow \joinrel  \rhook $}}{}{}Interface\discretionary {\unhbox \voidb@x \hbox {\relax \fontsize  {7}{8}\selectfont  $\leftarrow \joinrel  \rhook $}}{}{}Internal\discretionary {\unhbox \voidb@x \hbox {\relax \fontsize  {7}{8}\selectfont  $\leftarrow \joinrel  \rhook $}}{}{}\_\discretionary {\unhbox \voidb@x \hbox {\relax \fontsize  {7}{8}\selectfont  $\leftarrow \joinrel  \rhook $}}{}{}\discretionary {\unhbox \voidb@x \hbox {\relax \fontsize  {7}{8}\selectfont  $\leftarrow \joinrel  \rhook $}}{}{}Sw\discretionary {\unhbox \voidb@x \hbox {\relax \fontsize  {7}{8}\selectfont  $\leftarrow \joinrel  \rhook $}}{}{}\_\discretionary {\unhbox \voidb@x \hbox {\relax \fontsize  {7}{8}\selectfont  $\leftarrow \joinrel  \rhook $}}{}{}\discretionary {\unhbox \voidb@x \hbox {\relax \fontsize  {7}{8}\selectfont  $\leftarrow \joinrel  \rhook $}}{}{}Select\discretionary {\unhbox \voidb@x \hbox {\relax \fontsize  {7}{8}\selectfont  $\leftarrow \joinrel  \rhook $}}{}{}Application()}{49}{subsubsection.4.24.2.4}}
\gdef \LT@lvi {\LT@entry 
    {3}{67.3661pt}\LT@entry 
    {3}{175.75536pt}}
\gdef \LT@lvii {\LT@entry 
    {3}{70.81296pt}\LT@entry 
    {3}{158.61957pt}}
\gdef \LT@lviii {\LT@entry 
    {3}{67.3661pt}\LT@entry 
    {3}{277.36282pt}}
\newlabel{group___p_i_c_c_ga10f60edc3d17f04cfac10cc7760e9587}{{4.24.2.4}{50}{\texorpdfstring {Cns\+Card\+Interface\+Internal\+\_\+\+Sw\+\_\+\+Select\+Application()}{CnsCardInterfaceInternal\_Sw\_SelectApplication()}}{table.4.56}{}}
\@writefile{toc}{\contentsline {subsubsection}{\numberline {4.24.2.5}Cns\discretionary {\unhbox \voidb@x \hbox {\relax \fontsize  {7}{8}\selectfont  $\leftarrow \joinrel  \rhook $}}{}{}Card\discretionary {\unhbox \voidb@x \hbox {\relax \fontsize  {7}{8}\selectfont  $\leftarrow \joinrel  \rhook $}}{}{}Interface\discretionary {\unhbox \voidb@x \hbox {\relax \fontsize  {7}{8}\selectfont  $\leftarrow \joinrel  \rhook $}}{}{}Internal\discretionary {\unhbox \voidb@x \hbox {\relax \fontsize  {7}{8}\selectfont  $\leftarrow \joinrel  \rhook $}}{}{}Get\discretionary {\unhbox \voidb@x \hbox {\relax \fontsize  {7}{8}\selectfont  $\leftarrow \joinrel  \rhook $}}{}{}Value()}{50}{subsubsection.4.24.2.5}}
\newlabel{group___p_i_c_c_ga4f2f79a6cce90078e5bde4b7c4a3477a}{{4.24.2.5}{50}{\texorpdfstring {Cns\+Card\+Interface\+Internal\+Get\+Value()}{CnsCardInterfaceInternalGetValue()}}{table.4.57}{}}
\@writefile{toc}{\contentsline {subsubsection}{\numberline {4.24.2.6}Cns\discretionary {\unhbox \voidb@x \hbox {\relax \fontsize  {7}{8}\selectfont  $\leftarrow \joinrel  \rhook $}}{}{}Card\discretionary {\unhbox \voidb@x \hbox {\relax \fontsize  {7}{8}\selectfont  $\leftarrow \joinrel  \rhook $}}{}{}Interface\discretionary {\unhbox \voidb@x \hbox {\relax \fontsize  {7}{8}\selectfont  $\leftarrow \joinrel  \rhook $}}{}{}Internal\discretionary {\unhbox \voidb@x \hbox {\relax \fontsize  {7}{8}\selectfont  $\leftarrow \joinrel  \rhook $}}{}{}Read\discretionary {\unhbox \voidb@x \hbox {\relax \fontsize  {7}{8}\selectfont  $\leftarrow \joinrel  \rhook $}}{}{}Data()}{50}{subsubsection.4.24.2.6}}
\gdef \LT@lix {\LT@entry 
    {3}{70.81296pt}\LT@entry 
    {3}{277.36282pt}}
\newlabel{group___p_i_c_c_ga7e18d74607c955aebb8ae665c7a39940}{{4.24.2.6}{51}{\texorpdfstring {Cns\+Card\+Interface\+Internal\+Read\+Data()}{CnsCardInterfaceInternalReadData()}}{table.4.58}{}}
\@writefile{toc}{\contentsline {subsubsection}{\numberline {4.24.2.7}Cns\discretionary {\unhbox \voidb@x \hbox {\relax \fontsize  {7}{8}\selectfont  $\leftarrow \joinrel  \rhook $}}{}{}Card\discretionary {\unhbox \voidb@x \hbox {\relax \fontsize  {7}{8}\selectfont  $\leftarrow \joinrel  \rhook $}}{}{}Interface\discretionary {\unhbox \voidb@x \hbox {\relax \fontsize  {7}{8}\selectfont  $\leftarrow \joinrel  \rhook $}}{}{}Internal\discretionary {\unhbox \voidb@x \hbox {\relax \fontsize  {7}{8}\selectfont  $\leftarrow \joinrel  \rhook $}}{}{}Read\discretionary {\unhbox \voidb@x \hbox {\relax \fontsize  {7}{8}\selectfont  $\leftarrow \joinrel  \rhook $}}{}{}Records()}{51}{subsubsection.4.24.2.7}}
\newlabel{group___p_i_c_c_gae2f993553fbc4689c4b04b64bf8605c0}{{4.24.2.7}{51}{\texorpdfstring {Cns\+Card\+Interface\+Internal\+Read\+Records()}{CnsCardInterfaceInternalReadRecords()}}{table.4.59}{}}
\@writefile{toc}{\contentsline {subsubsection}{\numberline {4.24.2.8}Cns\discretionary {\unhbox \voidb@x \hbox {\relax \fontsize  {7}{8}\selectfont  $\leftarrow \joinrel  \rhook $}}{}{}Card\discretionary {\unhbox \voidb@x \hbox {\relax \fontsize  {7}{8}\selectfont  $\leftarrow \joinrel  \rhook $}}{}{}Interface\discretionary {\unhbox \voidb@x \hbox {\relax \fontsize  {7}{8}\selectfont  $\leftarrow \joinrel  \rhook $}}{}{}Internal\discretionary {\unhbox \voidb@x \hbox {\relax \fontsize  {7}{8}\selectfont  $\leftarrow \joinrel  \rhook $}}{}{}Write\discretionary {\unhbox \voidb@x \hbox {\relax \fontsize  {7}{8}\selectfont  $\leftarrow \joinrel  \rhook $}}{}{}Data()}{51}{subsubsection.4.24.2.8}}
\gdef \LT@lx {\LT@entry 
    {3}{70.81296pt}\LT@entry 
    {3}{107.08653pt}}
\gdef \LT@lxi {\LT@entry 
    {3}{70.81296pt}\LT@entry 
    {3}{107.08653pt}}
\newlabel{group___p_i_c_c_gaaae33cfe82c76112658e418486ab421b}{{4.24.2.8}{52}{\texorpdfstring {Cns\+Card\+Interface\+Internal\+Write\+Data()}{CnsCardInterfaceInternalWriteData()}}{table.4.60}{}}
\@writefile{toc}{\contentsline {subsubsection}{\numberline {4.24.2.9}Cns\discretionary {\unhbox \voidb@x \hbox {\relax \fontsize  {7}{8}\selectfont  $\leftarrow \joinrel  \rhook $}}{}{}Card\discretionary {\unhbox \voidb@x \hbox {\relax \fontsize  {7}{8}\selectfont  $\leftarrow \joinrel  \rhook $}}{}{}Interface\discretionary {\unhbox \voidb@x \hbox {\relax \fontsize  {7}{8}\selectfont  $\leftarrow \joinrel  \rhook $}}{}{}Internal\discretionary {\unhbox \voidb@x \hbox {\relax \fontsize  {7}{8}\selectfont  $\leftarrow \joinrel  \rhook $}}{}{}Write\discretionary {\unhbox \voidb@x \hbox {\relax \fontsize  {7}{8}\selectfont  $\leftarrow \joinrel  \rhook $}}{}{}Record()}{52}{subsubsection.4.24.2.9}}
\newlabel{group___p_i_c_c_gaf574c0a803e529e31780ff6719426717}{{4.24.2.9}{52}{\texorpdfstring {Cns\+Card\+Interface\+Internal\+Write\+Record()}{CnsCardInterfaceInternalWriteRecord()}}{table.4.61}{}}
\@writefile{toc}{\contentsline {subsubsection}{\numberline {4.24.2.10}Cns\discretionary {\unhbox \voidb@x \hbox {\relax \fontsize  {7}{8}\selectfont  $\leftarrow \joinrel  \rhook $}}{}{}Card\discretionary {\unhbox \voidb@x \hbox {\relax \fontsize  {7}{8}\selectfont  $\leftarrow \joinrel  \rhook $}}{}{}Interface\discretionary {\unhbox \voidb@x \hbox {\relax \fontsize  {7}{8}\selectfont  $\leftarrow \joinrel  \rhook $}}{}{}Sam\discretionary {\unhbox \voidb@x \hbox {\relax \fontsize  {7}{8}\selectfont  $\leftarrow \joinrel  \rhook $}}{}{}\_\discretionary {\unhbox \voidb@x \hbox {\relax \fontsize  {7}{8}\selectfont  $\leftarrow \joinrel  \rhook $}}{}{}\discretionary {\unhbox \voidb@x \hbox {\relax \fontsize  {7}{8}\selectfont  $\leftarrow \joinrel  \rhook $}}{}{}Sw\discretionary {\unhbox \voidb@x \hbox {\relax \fontsize  {7}{8}\selectfont  $\leftarrow \joinrel  \rhook $}}{}{}\_\discretionary {\unhbox \voidb@x \hbox {\relax \fontsize  {7}{8}\selectfont  $\leftarrow \joinrel  \rhook $}}{}{}\discretionary {\unhbox \voidb@x \hbox {\relax \fontsize  {7}{8}\selectfont  $\leftarrow \joinrel  \rhook $}}{}{}Iso\discretionary {\unhbox \voidb@x \hbox {\relax \fontsize  {7}{8}\selectfont  $\leftarrow \joinrel  \rhook $}}{}{}Authenticate()}{52}{subsubsection.4.24.2.10}}
\newlabel{group___p_i_c_c_ga0238b1a65c1f9b4cc95f0969e1858de8}{{4.24.2.10}{52}{\texorpdfstring {Cns\+Card\+Interface\+Sam\+\_\+\+Sw\+\_\+\+Iso\+Authenticate()}{CnsCardInterfaceSam\_Sw\_IsoAuthenticate()}}{subsubsection.4.24.2.10}{}}
\@writefile{toc}{\contentsline {subsubsection}{\numberline {4.24.2.11}int\discretionary {\unhbox \voidb@x \hbox {\relax \fontsize  {7}{8}\selectfont  $\leftarrow \joinrel  \rhook $}}{}{}Dnfcc\discretionary {\unhbox \voidb@x \hbox {\relax \fontsize  {7}{8}\selectfont  $\leftarrow \joinrel  \rhook $}}{}{}Read\discretionary {\unhbox \voidb@x \hbox {\relax \fontsize  {7}{8}\selectfont  $\leftarrow \joinrel  \rhook $}}{}{}X()}{52}{subsubsection.4.24.2.11}}
\gdef \LT@lxii {\LT@entry 
    {3}{86.83267pt}\LT@entry 
    {3}{260.56024pt}}
\gdef \LT@lxiii {\LT@entry 
    {3}{86.83267pt}\LT@entry 
    {3}{164.32574pt}}
\newlabel{group___p_i_c_c_gae4574465d319461919aa41eb1d7266f0}{{4.24.2.11}{53}{\texorpdfstring {int\+Dnfcc\+Read\+X()}{intDnfccReadX()}}{table.4.62}{}}
\@writefile{toc}{\contentsline {subsubsection}{\numberline {4.24.2.12}int\discretionary {\unhbox \voidb@x \hbox {\relax \fontsize  {7}{8}\selectfont  $\leftarrow \joinrel  \rhook $}}{}{}Dnfcc\discretionary {\unhbox \voidb@x \hbox {\relax \fontsize  {7}{8}\selectfont  $\leftarrow \joinrel  \rhook $}}{}{}Writed\discretionary {\unhbox \voidb@x \hbox {\relax \fontsize  {7}{8}\selectfont  $\leftarrow \joinrel  \rhook $}}{}{}X()}{53}{subsubsection.4.24.2.12}}
\@setckpt{group___p_i_c_c}{
\setcounter{page}{54}
\setcounter{equation}{0}
\setcounter{enumi}{0}
\setcounter{enumii}{0}
\setcounter{enumiii}{0}
\setcounter{enumiv}{0}
\setcounter{footnote}{0}
\setcounter{mpfootnote}{0}
\setcounter{part}{0}
\setcounter{chapter}{4}
\setcounter{section}{24}
\setcounter{subsection}{2}
\setcounter{subsubsection}{12}
\setcounter{paragraph}{0}
\setcounter{subparagraph}{0}
\setcounter{figure}{0}
\setcounter{table}{63}
\setcounter{float@type}{4}
\setcounter{LT@tables}{63}
\setcounter{LT@chunks}{3}
\setcounter{NAT@ctr}{0}
\setcounter{lofdepth}{1}
\setcounter{lotdepth}{1}
\setcounter{Item}{0}
\setcounter{Hfootnote}{0}
\setcounter{bookmark@seq@number}{140}
\setcounter{ContinuedFloat}{0}
\setcounter{section@level}{3}
}
