\relax 
\providecommand\hyper@newdestlabel[2]{}
\@writefile{toc}{\contentsline {section}{\numberline {4.10}U\discretionary {\unhbox \voidb@x \hbox {\relax \fontsize  {7}{8}\selectfont  $\leftarrow \joinrel  \rhook $}}{}{}S\discretionary {\unhbox \voidb@x \hbox {\relax \fontsize  {7}{8}\selectfont  $\leftarrow \joinrel  \rhook $}}{}{}B\discretionary {\unhbox \voidb@x \hbox {\relax \fontsize  {7}{8}\selectfont  $\leftarrow \joinrel  \rhook $}}{}{}D\discretionary {\unhbox \voidb@x \hbox {\relax \fontsize  {7}{8}\selectfont  $\leftarrow \joinrel  \rhook $}}{}{}\_\discretionary {\unhbox \voidb@x \hbox {\relax \fontsize  {7}{8}\selectfont  $\leftarrow \joinrel  \rhook $}}{}{}\discretionary {\unhbox \voidb@x \hbox {\relax \fontsize  {7}{8}\selectfont  $\leftarrow \joinrel  \rhook $}}{}{}D\discretionary {\unhbox \voidb@x \hbox {\relax \fontsize  {7}{8}\selectfont  $\leftarrow \joinrel  \rhook $}}{}{}E\discretionary {\unhbox \voidb@x \hbox {\relax \fontsize  {7}{8}\selectfont  $\leftarrow \joinrel  \rhook $}}{}{}S\discretionary {\unhbox \voidb@x \hbox {\relax \fontsize  {7}{8}\selectfont  $\leftarrow \joinrel  \rhook $}}{}{}C\discretionary {\unhbox \voidb@x \hbox {\relax \fontsize  {7}{8}\selectfont  $\leftarrow \joinrel  \rhook $}}{}{}\_\discretionary {\unhbox \voidb@x \hbox {\relax \fontsize  {7}{8}\selectfont  $\leftarrow \joinrel  \rhook $}}{}{}\discretionary {\unhbox \voidb@x \hbox {\relax \fontsize  {7}{8}\selectfont  $\leftarrow \joinrel  \rhook $}}{}{}Private\discretionary {\unhbox \voidb@x \hbox {\relax \fontsize  {7}{8}\selectfont  $\leftarrow \joinrel  \rhook $}}{}{}\_\discretionary {\unhbox \voidb@x \hbox {\relax \fontsize  {7}{8}\selectfont  $\leftarrow \joinrel  \rhook $}}{}{}\discretionary {\unhbox \voidb@x \hbox {\relax \fontsize  {7}{8}\selectfont  $\leftarrow \joinrel  \rhook $}}{}{}Defines}{19}{section.4.10}}
\newlabel{group___u_s_b_d___d_e_s_c___private___defines}{{4.10}{19}{U\+S\+B\+D\+\_\+\+D\+E\+S\+C\+\_\+\+Private\+\_\+\+Defines}{section.4.10}{}}
\newlabel{group___u_s_b_d___d_e_s_c___private___defines_gac5251397ce2246b546b472cd802e6d62}{{4.10}{19}{Macros}{section*.9}{}}
\newlabel{group___u_s_b_d___d_e_s_c___private___defines_ga070dd542d4d914e86fdf103fa5fdd72f}{{4.10}{19}{Macros}{section*.9}{}}
\newlabel{group___u_s_b_d___d_e_s_c___private___defines_gaee0c9fd7e8265b90126028919cd863a6}{{4.10}{19}{Macros}{section*.9}{}}
\newlabel{group___u_s_b_d___d_e_s_c___private___defines_gaa6f9e36da39c9881963cabf42df4d216}{{4.10}{19}{Macros}{section*.9}{}}
\newlabel{group___u_s_b_d___d_e_s_c___private___defines_gaa11017e20e3a2f1ef891b86212c4b730}{{4.10}{19}{Macros}{section*.9}{}}
\newlabel{group___u_s_b_d___d_e_s_c___private___defines_ga0057246fa742e75846bb0467a84921fc}{{4.10}{19}{Macros}{section*.9}{}}
\newlabel{group___u_s_b_d___d_e_s_c___private___defines_gaca5e66e8b6c89a896f6ad16f9a68128f}{{4.10}{19}{Macros}{section*.9}{}}
\newlabel{group___u_s_b_d___d_e_s_c___private___defines_ga2562ccc9162020b79f07d813eba10ddb}{{4.10}{19}{Macros}{section*.9}{}}
\newlabel{group___u_s_b_d___d_e_s_c___private___defines_ga3d6767367e9b15bae8d264a78102aba8}{{4.10}{19}{Macros}{section*.9}{}}
\@writefile{toc}{\contentsline {subsection}{\numberline {4.10.1}Detailed Description}{19}{subsection.4.10.1}}
\@setckpt{group___u_s_b_d___d_e_s_c___private___defines}{
\setcounter{page}{20}
\setcounter{equation}{0}
\setcounter{enumi}{0}
\setcounter{enumii}{0}
\setcounter{enumiii}{0}
\setcounter{enumiv}{0}
\setcounter{footnote}{0}
\setcounter{mpfootnote}{0}
\setcounter{part}{0}
\setcounter{chapter}{4}
\setcounter{section}{10}
\setcounter{subsection}{1}
\setcounter{subsubsection}{0}
\setcounter{paragraph}{0}
\setcounter{subparagraph}{0}
\setcounter{figure}{0}
\setcounter{table}{10}
\setcounter{float@type}{4}
\setcounter{LT@tables}{10}
\setcounter{LT@chunks}{3}
\setcounter{NAT@ctr}{0}
\setcounter{lofdepth}{1}
\setcounter{lotdepth}{1}
\setcounter{Item}{0}
\setcounter{Hfootnote}{0}
\setcounter{bookmark@seq@number}{32}
\setcounter{ContinuedFloat}{0}
\setcounter{section@level}{2}
}
