DnfccSamCrypto.c:51:6:cmacMe	96	static
DnfccSamCrypto.c:71:6:aes128Encrypt	336	static
DnfccSamCrypto.c:86:6:aes128Decrypt	304	static
DnfccSamCrypto.c:100:9:DnfccSamAuthenticateHost	408	static
DnfccSamCrypto.c:257:9:SamAthenticatePICCPart1	136	static
DnfccSamCrypto.c:300:9:SamAthenticatePICCPart2	128	static
