SerialCommunicator.c:46:5:apiDnfccSerialCommunicationVerifyStringPresentInReceiveBuffer	16	static
SerialCommunicator.c:59:6:apiDnfccSerialCommunicationInitialize	24	static
SerialCommunicator.c:74:6:apiDnfccSerialCommunicationAdvance	48	static
