syscalls.c:93:6:initialise_monitor_handles	4	static
syscalls.c:97:5:_getpid	4	static
syscalls.c:102:5:_kill	16	static
syscalls.c:108:6:_exit	16	static
syscalls.c:114:5:_read	40	static
syscalls.c:126:5:_write	32	static
syscalls.c:137:9:_sbrk	24	static
syscalls.c:160:5:_close	16	static
syscalls.c:166:5:_fstat	16	static
syscalls.c:172:5:_isatty	16	static
syscalls.c:177:5:_lseek	24	static
syscalls.c:182:5:_open	12	static
syscalls.c:188:5:_wait	16	static
syscalls.c:194:5:_unlink	16	static
syscalls.c:200:5:_times	16	static
syscalls.c:205:5:_stat	16	static
syscalls.c:211:5:_link	16	static
syscalls.c:217:5:_fork	8	static
syscalls.c:223:5:_execve	24	static
