DeviceDataFiles.c:53:9:intDnfccCheckLineForMatchRST	32	static
DeviceDataFiles.c:108:7:intDnfccSkipTillAfterComma	16	static
DeviceDataFiles.c:123:6:apiDnfccParseLineToArray	24	static
DeviceDataFiles.c:148:6:apiDnfccSetRouteAndFare	168	static
DeviceDataFiles.c:203:10:apiDnfccGetTicketFare	16	static
DeviceDataFiles.c:217:6:apiDnfccSetRouteType	16	static
