FileFunctions.c:49:6:apiDnfccInitSdioBlockInfo	16	static
FileFunctions.c:60:6:apiDnfccUpdateDeviceStructVersions	4	static
FileFunctions.c:77:6:apiDnfccReadSector	24	static
FileFunctions.c:92:6:apiapiDnfccInitSectorForWriteByRead	24	static
FileFunctions.c:105:6:apiDnfccFlushWrite	16	static
FileFunctions.c:119:6:apiDnfccReadSectorRaw	64	static
FileFunctions.c:167:6:apiDnfccInitSector	40	static
FileFunctions.c:183:6:intDnfccInitSectorForWriteByReadRaw	56	static
FileFunctions.c:220:6:intDnfccFlushWriteRaw	48	static
FileFunctions.c:265:6:apiDnfccSetWriteData	48	static
FileFunctions.c:306:6:apiDnfccAllocateFile	96	static
FileFunctions.c:354:6:apiDnfccPublishFile	24	static
FileFunctions.c:397:6:apiDnfccWriteLogfile128Bytes	64	static
FileFunctions.c:433:6:apiDnfccFormatCardIfNeeded	32	static
FileFunctions.c:482:9:apiDnfccGetNextMessageFromLogging	48	static
